%YAML 1.1
%TAG !u! tag:unity3d.com,2011:
--- !u!114 &11400000
MonoBehaviour:
  m_ObjectHideFlags: 0
  m_PrefabParentObject: {fileID: 0}
  m_PrefabInternal: {fileID: 0}
  m_GameObject: {fileID: 0}
  m_Enabled: 1
  m_EditorHideFlags: 0
  m_Script: {fileID: 75456632, guid: b94fcd4974c1db34db241cf43ef2a514, type: 1}
  m_Name: Chest
  _Prefab: {fileID: 100000, guid: 58a226a7a58750348a2207a4e9a01241, type: 2}
  _Icon: {fileID: 0}
  _Radius: .5
  _Height: 1
