{
"bones": [
	{ "name": "root", "y": 4.99 },
	{ "name": "arm_left", "parent": "root", "length": 30.1, "x": -11.45, "y": 50.52, "rotation": -93.64 },
	{ "name": "arm_right", "parent": "root", "length": 30.35, "x": 17.34, "y": 56.14, "rotation": -53.95 },
	{ "name": "leg_left", "parent": "root", "length": 21.48, "x": -10.25, "y": 24.29, "rotation": -98.83 },
	{ "name": "leg_right", "parent": "root", "length": 22.44, "x": 7.89, "y": 26.7, "rotation": -93.78 },
	{ "name": "shadow", "parent": "root", "length": 21.5, "x": -0.97, "y": -3.82, "rotation": 89.09 },
	{ "name": "torso", "parent": "root", "length": 35.7, "x": 2.11, "y": 26.4, "rotation": 90.45 },
	{ "name": "head", "parent": "torso", "length": 27.54, "x": 31.05, "y": -3.36, "rotation": 0.9 },
	{ "name": "shield", "parent": "arm_left", "length": 27.89, "x": 11.59, "y": -6.37, "rotation": -5.03 },
	{ "name": "sword", "parent": "arm_right", "length": 48.96, "x": 38.15, "y": -17.81, "rotation": 71.52 }
],
"slots": [
	{ "name": "shadow", "bone": "shadow", "color": "ffffff2e", "attachment": "skel_shadow" },
	{ "name": "effect", "bone": "sword" },
	{ "name": "arm_left_o", "bone": "arm_left", "attachment": "skel_hand_left_o" },
	{ "name": "skel_arm2_o", "bone": "arm_right", "attachment": "skel_arm_o" },
	{ "name": "leg_foot_o", "bone": "leg_left", "attachment": "skel_foot_o" },
	{ "name": "skel_foot2_o", "bone": "leg_right", "attachment": "skel_foot_o" },
	{ "name": "torso_o", "bone": "torso", "attachment": "skel_body_o" },
	{ "name": "chest_o", "bone": "torso", "attachment": "skel_chest_o" },
	{ "name": "shield_o", "bone": "shield", "attachment": "skel_shield_o" },
	{ "name": "sword_o", "bone": "sword", "attachment": "skel_sword_o" },
	{ "name": "leg_right_o", "bone": "leg_right", "attachment": "skel_leg_o" },
	{ "name": "skel_arm_o", "bone": "arm_left", "attachment": "skel_arm_o" },
	{ "name": "leg_left_o", "bone": "leg_left", "attachment": "skel_leg_o" },
	{ "name": "arm_right_o", "bone": "arm_right", "attachment": "skel_hand_right_o" },
	{ "name": "head_o", "bone": "head", "attachment": "skel_head_o" },
	{ "name": "sword", "bone": "sword", "attachment": "skel_sword" },
	{ "name": "arm_right", "bone": "arm_right", "attachment": "skel_hand_right" },
	{ "name": "skel_arm2", "bone": "arm_right", "attachment": "skel_arm" },
	{ "name": "leg_left", "bone": "leg_left", "attachment": "skel_leg" },
	{ "name": "leg_right", "bone": "leg_right", "attachment": "skel_leg" },
	{ "name": "skel_foot2", "bone": "leg_right", "attachment": "skel_foot" },
	{ "name": "leg_foot", "bone": "leg_left", "attachment": "skel_foot" },
	{ "name": "torso", "bone": "torso", "attachment": "skel_body" },
	{ "name": "chest", "bone": "torso", "attachment": "skel_chest" },
	{ "name": "head", "bone": "head", "attachment": "skel_head" },
	{ "name": "skel_arm", "bone": "arm_left", "attachment": "skel_arm" },
	{ "name": "arm_left", "bone": "arm_left", "attachment": "skel_hand_left" },
	{ "name": "shield", "bone": "shield", "attachment": "skel_shield" }
],
"skins": {
	"default": {
		"arm_left": {
			"skel_hand_left": { "x": 16.44, "y": -5.03, "rotation": 442.92, "width": 22, "height": 22 }
		},
		"arm_left_o": {
			"skel_hand_left_o": { "x": 16.44, "y": -5.03, "rotation": 442.92, "width": 26, "height": 26 }
		},
		"arm_right": {
			"skel_hand_right": { "x": 27.45, "y": -10.31, "rotation": 78.95, "width": 10, "height": 23 }
		},
		"arm_right_o": {
			"skel_hand_right_o": { "x": 27.45, "y": -10.31, "rotation": 78.95, "width": 14, "height": 27 }
		},
		"chest": {
			"skel_chest": { "x": 22.91, "y": -2.21, "rotation": -90.45, "width": 30, "height": 24 }
		},
		"chest_o": {
			"skel_chest_o": { "x": 22.91, "y": -2.21, "rotation": -90.45, "width": 34, "height": 28 }
		},
		"effect": {
			"skel_sword01": { "x": 44.41, "y": -14.04, "scaleX": -0.6, "scaleY": 0.6, "rotation": 18.36, "width": 56, "height": 89 },
			"skel_sword02": { "x": 34.49, "y": 16.13, "scaleX": -0.6, "scaleY": 0.6, "rotation": 16.23, "width": 68, "height": 89 },
			"skel_sword03": { "x": 25.78, "y": 50.25, "scaleX": -0.6, "scaleY": 0.6, "rotation": 15.41, "width": 69, "height": 209 }
		},
		"head": {
			"skel_head": { "x": 14.96, "y": -11.54, "rotation": -91.35, "width": 60, "height": 60 }
		},
		"head_o": {
			"skel_head_o": { "x": 14.96, "y": -11.54, "rotation": -91.35, "width": 60, "height": 60 }
		},
		"leg_foot": {
			"skel_foot": { "x": 18.88, "y": 0.82, "rotation": 98.83, "width": 16, "height": 20 }
		},
		"leg_foot_o": {
			"skel_foot_o": { "x": 18.88, "y": 0.82, "rotation": 98.83, "width": 20, "height": 24 }
		},
		"leg_left": {
			"skel_leg": { "x": 5.8, "y": -1.37, "rotation": 454.5, "width": 8, "height": 16 }
		},
		"leg_left_o": {
			"skel_leg_o": { "x": 5.8, "y": -1.37, "rotation": 454.5, "width": 12, "height": 20 }
		},
		"leg_right": {
			"skel_leg": { "x": 5.42, "y": 1.86, "rotation": 449.44, "width": 8, "height": 16 }
		},
		"leg_right_o": {
			"skel_leg_o": { "x": 5.42, "y": 1.86, "rotation": 449.44, "width": 12, "height": 20 }
		},
		"shadow": {
			"skel_shadow": { "x": 2.12, "y": 0.03, "rotation": -89.09, "width": 78, "height": 14 }
		},
		"shield": {
			"skel_shield": { "x": 11.35, "y": -0.32, "rotation": 94.48, "width": 40, "height": 40 }
		},
		"shield_o": {
			"skel_shield_o": { "x": 11.35, "y": -0.32, "rotation": 94.48, "width": 44, "height": 44 }
		},
		"skel_arm": {
			"skel_arm": { "x": 0.18, "y": -4.05, "rotation": 120.39, "width": 22, "height": 14 }
		},
		"skel_arm2": {
			"skel_arm": { "x": 10.1, "y": -2.59, "rotation": 131.65, "width": 22, "height": 14 }
		},
		"skel_arm2_o": {
			"skel_arm_o": { "x": 10.1, "y": -2.59, "rotation": 128.65, "width": 26, "height": 18 }
		},
		"skel_arm_o": {
			"skel_arm_o": { "x": 0.18, "y": -4.05, "rotation": 120.39, "width": 26, "height": 18 }
		},
		"skel_foot2": {
			"skel_foot": { "x": 19.56, "y": 2.9, "rotation": 93.78, "width": 16, "height": 20 }
		},
		"skel_foot2_o": {
			"skel_foot_o": { "x": 19.56, "y": 2.9, "rotation": 93.78, "width": 20, "height": 24 }
		},
		"sword": {
			"skel_sword": { "x": 25.74, "y": 3.87, "rotation": 11.07, "width": 58, "height": 25 }
		},
		"sword_o": {
			"skel_sword_o": { "x": 25.74, "y": 3.87, "rotation": 11.07, "width": 62, "height": 29 }
		},
		"torso": {
			"skel_body": { "x": 18.37, "y": 0.57, "rotation": -90.45, "width": 29, "height": 48 }
		},
		"torso_o": {
			"skel_body_o": { "x": 18.37, "y": 0.57, "rotation": -90.45, "width": 33, "height": 52 }
		}
	}
},
"animations": {
	"attack": {
		"bones": {
			"torso": {
				"rotate": [
					{ "time": 0, "angle": 0 },
					{ "time": 0.3333, "angle": 7.94 },
					{ "time": 0.4333, "angle": -11.65 },
					{ "time": 1, "angle": 0 }
				],
				"translate": [
					{ "time": 0, "x": 0, "y": 0, "curve": "stepped" },
					{ "time": 1, "x": 0, "y": 0 }
				],
				"scale": [
					{ "time": 0, "x": 1, "y": 1, "curve": "stepped" },
					{ "time": 1, "x": 1, "y": 1 }
				]
			},
			"leg_right": {
				"rotate": [
					{ "time": 0, "angle": 0, "curve": "stepped" },
					{ "time": 1, "angle": 0 }
				],
				"translate": [
					{ "time": 0, "x": 0, "y": 0, "curve": "stepped" },
					{ "time": 1, "x": 0, "y": 0 }
				],
				"scale": [
					{ "time": 0, "x": 1, "y": 1, "curve": "stepped" },
					{ "time": 1, "x": 1, "y": 1 }
				]
			},
			"leg_left": {
				"rotate": [
					{ "time": 0, "angle": 0, "curve": "stepped" },
					{ "time": 1, "angle": 0 }
				],
				"translate": [
					{ "time": 0, "x": 0, "y": 0, "curve": "stepped" },
					{ "time": 1, "x": 0, "y": 0 }
				],
				"scale": [
					{ "time": 0, "x": 1, "y": 1, "curve": "stepped" },
					{ "time": 1, "x": 1, "y": 1 }
				]
			},
			"arm_right": {
				"rotate": [
					{ "time": 0, "angle": 29.24 },
					{ "time": 0.3333, "angle": 152.17 },
					{ "time": 0.4333, "angle": -15.31 },
					{ "time": 1, "angle": 29.24 }
				],
				"translate": [
					{ "time": 0, "x": 0, "y": 0 },
					{ "time": 0.3333, "x": -0.84, "y": -3.71 },
					{ "time": 0.4333, "x": 3.76, "y": -6.43 },
					{ "time": 1, "x": 0, "y": 0 }
				],
				"scale": [
					{ "time": 0, "x": 1, "y": 1, "curve": "stepped" },
					{ "time": 1, "x": 1, "y": 1 }
				]
			},
			"head": {
				"rotate": [
					{ "time": 0, "angle": 0, "curve": "stepped" },
					{ "time": 1, "angle": 0 }
				],
				"translate": [
					{ "time": 0, "x": 0, "y": 0, "curve": "stepped" },
					{ "time": 1, "x": 0, "y": 0 }
				],
				"scale": [
					{ "time": 0, "x": 1, "y": 1, "curve": "stepped" },
					{ "time": 1, "x": 1, "y": 1 }
				]
			},
			"arm_left": {
				"rotate": [
					{ "time": 0, "angle": 0 },
					{ "time": 0.3333, "angle": -11.98 },
					{ "time": 0.4333, "angle": -24.21 },
					{ "time": 1, "angle": 0 }
				],
				"translate": [
					{ "time": 0, "x": 0, "y": 0, "curve": "stepped" },
					{ "time": 0.3333, "x": 0, "y": 0 },
					{ "time": 0.4333, "x": 3.3, "y": 3.74 },
					{ "time": 1, "x": 0, "y": 0 }
				],
				"scale": [
					{ "time": 0, "x": 1, "y": 1, "curve": "stepped" },
					{ "time": 1, "x": 1, "y": 1 }
				]
			},
			"shield": {
				"rotate": [
					{ "time": 0, "angle": 0, "curve": "stepped" },
					{ "time": 1, "angle": 0 }
				],
				"translate": [
					{ "time": 0, "x": 0, "y": 0, "curve": "stepped" },
					{ "time": 1, "x": 0, "y": 0 }
				],
				"scale": [
					{ "time": 0, "x": 1, "y": 1, "curve": "stepped" },
					{ "time": 1, "x": 1, "y": 1 }
				]
			},
			"sword": {
				"rotate": [
					{ "time": 0, "angle": 0, "curve": "stepped" },
					{ "time": 0.4333, "angle": 0 },
					{ "time": 0.6, "angle": -17.24 },
					{ "time": 1, "angle": 0 }
				],
				"translate": [
					{ "time": 0, "x": 0, "y": 0, "curve": "stepped" },
					{ "time": 1, "x": 0, "y": 0 }
				],
				"scale": [
					{ "time": 0, "x": 1, "y": 1, "curve": "stepped" },
					{ "time": 1, "x": 1, "y": 1 }
				]
			}
		},
		"slots": {
			"effect": {
				"attachment": [
					{ "time": 0.3666, "name": "skel_sword01" },
					{ "time": 0.4, "name": "skel_sword02" },
					{ "time": 0.4333, "name": "skel_sword03" },
					{ "time": 0.5, "name": "skel_sword02" },
					{ "time": 0.5666, "name": "skel_sword01" },
					{ "time": 0.6333, "name": null }
				]
			}
		}
	},
	"critical": {
		"bones": {
			"torso": {
				"rotate": [
					{ "time": 0, "angle": 0 },
					{ "time": 0.1666, "angle": -2.08 },
					{ "time": 0.5333, "angle": -13.39 },
					{ "time": 1, "angle": 0 }
				],
				"translate": [
					{ "time": 0, "x": 0, "y": 0 },
					{ "time": 0.1666, "x": 0, "y": -0.83, "curve": "stepped" },
					{ "time": 0.4, "x": 0, "y": -0.83 },
					{ "time": 0.5333, "x": 0, "y": 0, "curve": "stepped" },
					{ "time": 1, "x": 0, "y": 0 }
				],
				"scale": [
					{ "time": 0, "x": 1, "y": 1, "curve": "stepped" },
					{ "time": 0.1666, "x": 1, "y": 1, "curve": "stepped" },
					{ "time": 0.5333, "x": 1, "y": 1, "curve": "stepped" },
					{ "time": 1, "x": 1, "y": 1 }
				]
			},
			"leg_right": {
				"rotate": [
					{ "time": 0, "angle": 0 },
					{ "time": 0.1666, "angle": -16.41 },
					{ "time": 0.4, "angle": 15.97 },
					{ "time": 0.5333, "angle": 15.46 },
					{ "time": 1, "angle": 0 }
				],
				"translate": [
					{ "time": 0, "x": 0, "y": 0 },
					{ "time": 0.1666, "x": 0, "y": 3.35 },
					{ "time": 0.2333, "x": 0, "y": -2.64 },
					{ "time": 0.4, "x": -2, "y": -1.14 },
					{ "time": 0.5333, "x": -0.58, "y": -2.31 },
					{ "time": 1, "x": 0, "y": 0 }
				],
				"scale": [
					{ "time": 0, "x": 1, "y": 1, "curve": "stepped" },
					{ "time": 0.1666, "x": 1, "y": 1, "curve": "stepped" },
					{ "time": 0.5333, "x": 1, "y": 1, "curve": "stepped" },
					{ "time": 1, "x": 1, "y": 1 }
				]
			},
			"leg_left": {
				"rotate": [
					{ "time": 0, "angle": 0, "curve": "stepped" },
					{ "time": 0.1666, "angle": 0 },
					{ "time": 0.4, "angle": -22.11 },
					{ "time": 0.5333, "angle": -48.82 },
					{ "time": 0.8333, "angle": 0 }
				],
				"translate": [
					{ "time": 0, "x": 0, "y": 0, "curve": "stepped" },
					{ "time": 0.1666, "x": 0, "y": 0 },
					{ "time": 0.2333, "x": 0, "y": -5.5 },
					{ "time": 0.4, "x": 2.22, "y": 4.44 },
					{ "time": 0.5333, "x": 3.47, "y": 3.48 },
					{ "time": 0.8333, "x": 0, "y": 0 }
				],
				"scale": [
					{ "time": 0, "x": 1, "y": 1, "curve": "stepped" },
					{ "time": 0.1666, "x": 1, "y": 1, "curve": "stepped" },
					{ "time": 0.5333, "x": 1, "y": 1, "curve": "stepped" },
					{ "time": 0.8333, "x": 1, "y": 1 }
				]
			},
			"arm_right": {
				"rotate": [
					{ "time": 0, "angle": 29.24 },
					{ "time": 0.1666, "angle": 4.01 },
					{ "time": 0.2333, "angle": 58.01 },
					{ "time": 0.4, "angle": 144.94 },
					{ "time": 0.5333, "angle": -31.88 },
					{ "time": 1, "angle": 29.24 }
				],
				"translate": [
					{ "time": 0, "x": 0, "y": 0, "curve": "stepped" },
					{ "time": 0.1666, "x": 0, "y": 0 },
					{ "time": 0.4, "x": 7.5, "y": -2.5 },
					{ "time": 0.5333, "x": 8.69, "y": -2.89 },
					{ "time": 1, "x": 0, "y": 0 }
				],
				"scale": [
					{ "time": 0, "x": 1, "y": 1, "curve": "stepped" },
					{ "time": 0.1666, "x": 1, "y": 1, "curve": "stepped" },
					{ "time": 0.5333, "x": 1, "y": 1, "curve": "stepped" },
					{ "time": 1, "x": 1, "y": 1 }
				]
			},
			"head": {
				"rotate": [
					{ "time": 0, "angle": 0 },
					{ "time": 0.1666, "angle": 9.09 },
					{ "time": 0.5333, "angle": 0, "curve": "stepped" },
					{ "time": 1, "angle": 0 }
				],
				"translate": [
					{ "time": 0, "x": 0, "y": 0, "curve": "stepped" },
					{ "time": 0.1666, "x": 0, "y": 0, "curve": "stepped" },
					{ "time": 0.4, "x": 0, "y": 0, "curve": "stepped" },
					{ "time": 0.5333, "x": 0, "y": 0, "curve": "stepped" },
					{ "time": 1, "x": 0, "y": 0 }
				],
				"scale": [
					{ "time": 0, "x": 1, "y": 1, "curve": "stepped" },
					{ "time": 0.1666, "x": 1, "y": 1, "curve": "stepped" },
					{ "time": 0.5333, "x": 1, "y": 1, "curve": "stepped" },
					{ "time": 1, "x": 1, "y": 1 }
				]
			},
			"arm_left": {
				"rotate": [
					{ "time": 0, "angle": 0 },
					{ "time": 0.1666, "angle": 7.94 },
					{ "time": 0.5333, "angle": -27.25 },
					{ "time": 1, "angle": 0 }
				],
				"translate": [
					{ "time": 0, "x": 0, "y": 0, "curve": "stepped" },
					{ "time": 0.1666, "x": 0, "y": 0, "curve": "stepped" },
					{ "time": 0.4, "x": 0, "y": 0, "curve": "stepped" },
					{ "time": 0.5333, "x": 0, "y": 0, "curve": "stepped" },
					{ "time": 1, "x": 0, "y": 0 }
				],
				"scale": [
					{ "time": 0, "x": 1, "y": 1, "curve": "stepped" },
					{ "time": 0.1666, "x": 1, "y": 1, "curve": "stepped" },
					{ "time": 0.5333, "x": 1, "y": 1, "curve": "stepped" },
					{ "time": 1, "x": 1, "y": 1 }
				]
			},
			"shield": {
				"rotate": [
					{ "time": 0, "angle": 0 },
					{ "time": 0.1666, "angle": -13.2 },
					{ "time": 0.5333, "angle": 0, "curve": "stepped" },
					{ "time": 1, "angle": 0 }
				],
				"translate": [
					{ "time": 0, "x": 0, "y": 0, "curve": "stepped" },
					{ "time": 0.1666, "x": 0, "y": 0 },
					{ "time": 0.2333, "x": 3.95, "y": -0.79 },
					{ "time": 0.4, "x": 0, "y": 0 },
					{ "time": 0.5333, "x": -7.15, "y": 1.8 },
					{ "time": 1, "x": 0, "y": 0 }
				],
				"scale": [
					{ "time": 0, "x": 1, "y": 1, "curve": "stepped" },
					{ "time": 0.1666, "x": 1, "y": 1, "curve": "stepped" },
					{ "time": 0.5333, "x": 1, "y": 1, "curve": "stepped" },
					{ "time": 1, "x": 1, "y": 1 }
				]
			},
			"sword": {
				"rotate": [
					{ "time": 0, "angle": 0, "curve": "stepped" },
					{ "time": 0.1666, "angle": 0 },
					{ "time": 0.5333, "angle": -8.16 },
					{ "time": 1, "angle": 0 }
				],
				"translate": [
					{ "time": 0, "x": 0, "y": 0, "curve": "stepped" },
					{ "time": 0.1666, "x": 0, "y": 0, "curve": "stepped" },
					{ "time": 0.4, "x": 0, "y": 0, "curve": "stepped" },
					{ "time": 0.5333, "x": 0, "y": 0, "curve": "stepped" },
					{ "time": 1, "x": 0, "y": 0 }
				],
				"scale": [
					{ "time": 0, "x": 1, "y": 1, "curve": "stepped" },
					{ "time": 0.1666, "x": 1, "y": 1, "curve": "stepped" },
					{ "time": 0.5333, "x": 1, "y": 1, "curve": "stepped" },
					{ "time": 1, "x": 1, "y": 1 }
				]
			},
			"root": {
				"rotate": [
					{ "time": 0, "angle": 0, "curve": "stepped" },
					{ "time": 0.1666, "angle": 0, "curve": "stepped" },
					{ "time": 0.5333, "angle": 0, "curve": "stepped" },
					{ "time": 1, "angle": 0 }
				],
				"translate": [
					{ "time": 0, "x": 0, "y": 0, "curve": "stepped" },
					{ "time": 0.1666, "x": 0, "y": 0 },
					{ "time": 0.4, "x": 0, "y": 60.67 },
					{ "time": 0.5333, "x": 0, "y": 0, "curve": "stepped" },
					{ "time": 1, "x": 0, "y": 0 }
				],
				"scale": [
					{ "time": 0, "x": 1, "y": 1, "curve": "stepped" },
					{ "time": 0.1666, "x": 1, "y": 1, "curve": "stepped" },
					{ "time": 0.5333, "x": 1, "y": 1, "curve": "stepped" },
					{ "time": 1, "x": 1, "y": 1 }
				]
			},
			"shadow": {
				"translate": [
					{ "time": 0, "x": 0, "y": 0, "curve": "stepped" },
					{ "time": 0.1666, "x": 0, "y": 0 },
					{ "time": 0.4, "x": -0.96, "y": -60.74 },
					{ "time": 0.5333, "x": 0, "y": 0, "curve": "stepped" },
					{ "time": 1, "x": 0, "y": 0 }
				]
			}
		},
		"slots": {
			"effect": {
				"attachment": [
					{ "time": 0.4, "name": null },
					{ "time": 0.4333, "name": "skel_sword01" },
					{ "time": 0.4666, "name": "skel_sword02" },
					{ "time": 0.5, "name": "skel_sword03" },
					{ "time": 0.6, "name": "skel_sword02" },
					{ "time": 0.6666, "name": "skel_sword01" },
					{ "time": 0.7333, "name": null }
				]
			},
			"shadow": {
				"color": [
					{ "time": 0.1666, "color": "ffffff2e" },
					{ "time": 0.4, "color": "ffffff0e" },
					{ "time": 0.5333, "color": "ffffff2e" }
				]
			}
		}
	},
	"dead": {
		"bones": {
			"torso": {
				"rotate": [
					{ "time": 0, "angle": 0 },
					{ "time": 0.3333, "angle": -253.2 }
				],
				"translate": [
					{ "time": 0, "x": 0, "y": 0 },
					{ "time": 0.3333, "x": 0, "y": -13.28 }
				],
				"scale": [
					{ "time": 0, "x": 1, "y": 1 }
				]
			},
			"leg_right": {
				"rotate": [
					{ "time": 0, "angle": 0 }
				],
				"translate": [
					{ "time": 0, "x": 0, "y": 0 }
				],
				"scale": [
					{ "time": 0, "x": 1, "y": 1 }
				]
			},
			"leg_left": {
				"rotate": [
					{ "time": 0, "angle": 0 }
				],
				"translate": [
					{ "time": 0, "x": 0, "y": 0 }
				],
				"scale": [
					{ "time": 0, "x": 1, "y": 1 }
				]
			},
			"arm_right": {
				"rotate": [
					{ "time": 0, "angle": 29.24 },
					{ "time": 0.1666, "angle": -20.63 }
				],
				"translate": [
					{ "time": 0, "x": 0, "y": 0, "curve": "stepped" },
					{ "time": 0.1666, "x": 0, "y": 0 },
					{ "time": 0.3333, "x": 0, "y": -17.4 }
				],
				"scale": [
					{ "time": 0, "x": 1, "y": 1 }
				]
			},
			"head": {
				"rotate": [
					{ "time": 0, "angle": 0 },
					{ "time": 0.1666, "angle": -103.88 },
					{ "time": 0.2666, "angle": -143.66 },
					{ "time": 0.5, "angle": 172.32, "curve": "stepped" },
					{ "time": 1, "angle": 172.32 }
				],
				"translate": [
					{ "time": 0, "x": 0, "y": 0 },
					{ "time": 0.1666, "x": -31.06, "y": 6.79 },
					{ "time": 0.2666, "x": -34.64, "y": -2.67 },
					{ "time": 0.5, "x": -44.99, "y": 2.64, "curve": "stepped" },
					{ "time": 1, "x": -44.99, "y": 2.64 }
				],
				"scale": [
					{ "time": 0, "x": 1, "y": 1 }
				]
			},
			"arm_left": {
				"rotate": [
					{ "time": 0, "angle": 0 }
				],
				"translate": [
					{ "time": 0, "x": 0, "y": 0 },
					{ "time": 0.1666, "x": 0, "y": -28.39 }
				],
				"scale": [
					{ "time": 0, "x": 1, "y": 1 }
				]
			},
			"shield": {
				"rotate": [
					{ "time": 0, "angle": 0 }
				],
				"translate": [
					{ "time": 0, "x": 0, "y": 0 },
					{ "time": 0.1666, "x": -11.88, "y": -0.75 }
				],
				"scale": [
					{ "time": 0, "x": 1, "y": 1 }
				]
			},
			"sword": {
				"rotate": [
					{ "time": 0, "angle": 0 },
					{ "time": 0.1666, "angle": -12.24 },
					{ "time": 0.3333, "angle": 18.63 }
				],
				"translate": [
					{ "time": 0, "x": 0, "y": 0 }
				],
				"scale": [
					{ "time": 0, "x": 1, "y": 1 }
				]
			}
		}
	},
	"move": {
		"bones": {
			"root": {
				"rotate": [
					{ "time": 0, "angle": 0, "curve": "stepped" },
					{ "time": 0.6666, "angle": 0 }
				],
				"translate": [
					{ "time": 0, "x": 0, "y": 0, "curve": "stepped" },
					{ "time": 0.6666, "x": 0, "y": 0 }
				],
				"scale": [
					{ "time": 0, "x": 1, "y": 1, "curve": "stepped" },
					{ "time": 0.6666, "x": 1, "y": 1 }
				]
			},
			"torso": {
				"rotate": [
					{ "time": 0, "angle": 0, "curve": "stepped" },
					{ "time": 0.3333, "angle": 0, "curve": "stepped" },
					{ "time": 0.6666, "angle": 0 }
				],
				"translate": [
					{ "time": 0, "x": 0, "y": 0 },
					{ "time": 0.1666, "x": -0.01, "y": 2.24 },
					{ "time": 0.3333, "x": 0, "y": 0 },
					{ "time": 0.5, "x": -0.01, "y": 2.24 },
					{ "time": 0.6666, "x": 0, "y": 0 }
				],
				"scale": [
					{ "time": 0, "x": 1, "y": 1, "curve": "stepped" },
					{ "time": 0.3333, "x": 1, "y": 1, "curve": "stepped" },
					{ "time": 0.6666, "x": 1, "y": 1 }
				]
			},
			"leg_right": {
				"rotate": [
					{ "time": 0, "angle": 0 },
					{ "time": 0.3333, "angle": -11.49 },
					{ "time": 0.5666, "angle": 17.03 },
					{ "time": 0.6666, "angle": 0 }
				],
				"translate": [
					{ "time": 0, "x": 0, "y": 0 },
					{ "time": 0.3333, "x": -13.37, "y": -0.75 },
					{ "time": 0.5666, "x": 0.04, "y": 1.25 },
					{ "time": 0.6666, "x": 0, "y": 0 }
				],
				"scale": [
					{ "time": 0, "x": 1, "y": 1, "curve": "stepped" },
					{ "time": 0.6666, "x": 1, "y": 1 }
				]
			},
			"leg_left": {
				"rotate": [
					{ "time": 0, "angle": 0 },
					{ "time": 0.2333, "angle": 21.9 },
					{ "time": 0.6666, "angle": 0 }
				],
				"translate": [
					{ "time": 0, "x": 0, "y": 0 },
					{ "time": 0.2333, "x": 10, "y": 3.5 },
					{ "time": 0.3333, "x": 10, "y": 0 },
					{ "time": 0.6666, "x": 0, "y": 0 }
				],
				"scale": [
					{ "time": 0, "x": 1, "y": 1, "curve": "stepped" },
					{ "time": 0.6666, "x": 1, "y": 1 }
				]
			},
			"arm_right": {
				"rotate": [
					{ "time": 0, "angle": 0 },
					{ "time": 0.1666, "angle": 7.69 },
					{ "time": 0.3333, "angle": 0 },
					{ "time": 0.5, "angle": -12.89 },
					{ "time": 0.6666, "angle": 0 }
				],
				"translate": [
					{ "time": 0, "x": 0, "y": 0 },
					{ "time": 0.1666, "x": -1.51, "y": 1.99 },
					{ "time": 0.3333, "x": 0, "y": 0 },
					{ "time": 0.5, "x": -0.01, "y": 1.49 },
					{ "time": 0.6666, "x": 0, "y": 0 }
				],
				"scale": [
					{ "time": 0, "x": 1, "y": 1, "curve": "stepped" },
					{ "time": 0.3333, "x": 1, "y": 1, "curve": "stepped" },
					{ "time": 0.6666, "x": 1, "y": 1 }
				]
			},
			"head": {
				"rotate": [
					{ "time": 0, "angle": 0, "curve": "stepped" },
					{ "time": 0.3333, "angle": 0, "curve": "stepped" },
					{ "time": 0.6666, "angle": 0 }
				],
				"translate": [
					{ "time": 0, "x": 0, "y": 0 },
					{ "time": 0.1666, "x": 0.41, "y": 0 },
					{ "time": 0.3333, "x": 0, "y": 0 },
					{ "time": 0.5, "x": 0.41, "y": 0 },
					{ "time": 0.6666, "x": 0, "y": 0 }
				],
				"scale": [
					{ "time": 0, "x": 1, "y": 1, "curve": "stepped" },
					{ "time": 0.3333, "x": 1, "y": 1, "curve": "stepped" },
					{ "time": 0.6666, "x": 1, "y": 1 }
				]
			},
			"arm_left": {
				"rotate": [
					{ "time": 0, "angle": 0 },
					{ "time": 0.1666, "angle": -4 },
					{ "time": 0.3333, "angle": 0 },
					{ "time": 0.5, "angle": 8.64 },
					{ "time": 0.6666, "angle": 0 }
				],
				"translate": [
					{ "time": 0, "x": 0, "y": 0 },
					{ "time": 0.1666, "x": 0, "y": 2.5 },
					{ "time": 0.3333, "x": 0, "y": 0 },
					{ "time": 0.5, "x": 0, "y": 2.5 },
					{ "time": 0.6666, "x": 0, "y": 0 }
				],
				"scale": [
					{ "time": 0, "x": 1, "y": 1, "curve": "stepped" },
					{ "time": 0.3333, "x": 1, "y": 1, "curve": "stepped" },
					{ "time": 0.6666, "x": 1, "y": 1 }
				]
			},
			"shield": {
				"rotate": [
					{ "time": 0, "angle": 0, "curve": "stepped" },
					{ "time": 0.6666, "angle": 0 }
				],
				"translate": [
					{ "time": 0, "x": 0, "y": 0, "curve": "stepped" },
					{ "time": 0.6666, "x": 0, "y": 0 }
				],
				"scale": [
					{ "time": 0, "x": 1, "y": 1, "curve": "stepped" },
					{ "time": 0.6666, "x": 1, "y": 1 }
				]
			},
			"sword": {
				"rotate": [
					{ "time": 0, "angle": 0, "curve": "stepped" },
					{ "time": 0.6666, "angle": 0 }
				],
				"translate": [
					{ "time": 0, "x": 0, "y": 0, "curve": "stepped" },
					{ "time": 0.6666, "x": 0, "y": 0 }
				],
				"scale": [
					{ "time": 0, "x": 1, "y": 1, "curve": "stepped" },
					{ "time": 0.6666, "x": 1, "y": 1 }
				]
			}
		}
	},
	"stand": {
		"bones": {
			"root": {
				"rotate": [
					{ "time": 0, "angle": 0, "curve": "stepped" },
					{ "time": 0.6666, "angle": 0 }
				],
				"translate": [
					{ "time": 0, "x": 0, "y": 0, "curve": "stepped" },
					{ "time": 0.6666, "x": 0, "y": 0 }
				],
				"scale": [
					{ "time": 0, "x": 1, "y": 1, "curve": "stepped" },
					{ "time": 0.6666, "x": 1, "y": 1 }
				]
			},
			"torso": {
				"rotate": [
					{ "time": 0, "angle": 0, "curve": "stepped" },
					{ "time": 0.6666, "angle": 0 }
				],
				"translate": [
					{ "time": 0, "x": 0, "y": 0 },
					{ "time": 0.3333, "x": 0, "y": -1.24 },
					{ "time": 0.6666, "x": 0, "y": 0 }
				],
				"scale": [
					{ "time": 0, "x": 1, "y": 1, "curve": "stepped" },
					{ "time": 0.6666, "x": 1, "y": 1 }
				]
			},
			"leg_right": {
				"rotate": [
					{ "time": 0, "angle": 0, "curve": "stepped" },
					{ "time": 0.6666, "angle": 0 }
				],
				"translate": [
					{ "time": 0, "x": 0, "y": 0, "curve": "stepped" },
					{ "time": 0.6666, "x": 0, "y": 0 }
				],
				"scale": [
					{ "time": 0, "x": 1, "y": 1, "curve": "stepped" },
					{ "time": 0.6666, "x": 1, "y": 1 }
				]
			},
			"leg_left": {
				"rotate": [
					{ "time": 0, "angle": 0, "curve": "stepped" },
					{ "time": 0.6666, "angle": 0 }
				],
				"translate": [
					{ "time": 0, "x": 0, "y": 0, "curve": "stepped" },
					{ "time": 0.6666, "x": 0, "y": 0 }
				],
				"scale": [
					{ "time": 0, "x": 1, "y": 1, "curve": "stepped" },
					{ "time": 0.6666, "x": 1, "y": 1 }
				]
			},
			"arm_right": {
				"rotate": [
					{ "time": 0, "angle": 0 },
					{ "time": 0.3333, "angle": -2.18 },
					{ "time": 0.6666, "angle": 0 }
				],
				"translate": [
					{ "time": 0, "x": 0, "y": 0, "curve": "stepped" },
					{ "time": 0.6666, "x": 0, "y": 0 }
				],
				"scale": [
					{ "time": 0, "x": 1, "y": 1, "curve": "stepped" },
					{ "time": 0.6666, "x": 1, "y": 1 }
				]
			},
			"head": {
				"rotate": [
					{ "time": 0, "angle": 0 }
				],
				"translate": [
					{ "time": 0, "x": 0, "y": 0 },
					{ "time": 0.3333, "x": 0.41, "y": 0 }
				],
				"scale": [
					{ "time": 0, "x": 1, "y": 1 }
				]
			},
			"arm_left": {
				"rotate": [
					{ "time": 0, "angle": 0, "curve": "stepped" },
					{ "time": 0.6666, "angle": 0 }
				],
				"translate": [
					{ "time": 0, "x": 0, "y": 0 },
					{ "time": 0.3333, "x": 0, "y": -2 },
					{ "time": 0.6666, "x": 0, "y": 0 }
				],
				"scale": [
					{ "time": 0, "x": 1, "y": 1, "curve": "stepped" },
					{ "time": 0.6666, "x": 1, "y": 1 }
				]
			},
			"shield": {
				"rotate": [
					{ "time": 0, "angle": 0, "curve": "stepped" },
					{ "time": 0.6666, "angle": 0 }
				],
				"translate": [
					{ "time": 0, "x": 0, "y": 0, "curve": "stepped" },
					{ "time": 0.6666, "x": 0, "y": 0 }
				],
				"scale": [
					{ "time": 0, "x": 1, "y": 1, "curve": "stepped" },
					{ "time": 0.6666, "x": 1, "y": 1 }
				]
			},
			"sword": {
				"rotate": [
					{ "time": 0, "angle": 0, "curve": "stepped" },
					{ "time": 0.6666, "angle": 0 }
				],
				"translate": [
					{ "time": 0, "x": 0, "y": 0, "curve": "stepped" },
					{ "time": 0.6666, "x": 0, "y": 0 }
				],
				"scale": [
					{ "time": 0, "x": 1, "y": 1, "curve": "stepped" },
					{ "time": 0.6666, "x": 1, "y": 1 }
				]
			}
		}
	},
	"standby": {
		"bones": {
			"root": {
				"rotate": [
					{ "time": 0.6666, "angle": 0 }
				],
				"translate": [
					{ "time": 0.6666, "x": 0, "y": 0 }
				],
				"scale": [
					{ "time": 0.6666, "x": 1, "y": 1 }
				]
			},
			"torso": {
				"rotate": [
					{ "time": 0, "angle": 0, "curve": "stepped" },
					{ "time": 0.6666, "angle": 0 }
				],
				"translate": [
					{ "time": 0, "x": 0, "y": 0 },
					{ "time": 0.3333, "x": 0, "y": -1.24 },
					{ "time": 0.6666, "x": 0, "y": 0 }
				],
				"scale": [
					{ "time": 0, "x": 1, "y": 1, "curve": "stepped" },
					{ "time": 0.6666, "x": 1, "y": 1 }
				]
			},
			"leg_right": {
				"rotate": [
					{ "time": 0, "angle": 0, "curve": "stepped" },
					{ "time": 0.6666, "angle": 0 }
				],
				"translate": [
					{ "time": 0, "x": 0, "y": 0, "curve": "stepped" },
					{ "time": 0.6666, "x": 0, "y": 0 }
				],
				"scale": [
					{ "time": 0, "x": 1, "y": 1, "curve": "stepped" },
					{ "time": 0.6666, "x": 1, "y": 1 }
				]
			},
			"leg_left": {
				"rotate": [
					{ "time": 0, "angle": 0, "curve": "stepped" },
					{ "time": 0.6666, "angle": 0 }
				],
				"translate": [
					{ "time": 0, "x": 0, "y": 0, "curve": "stepped" },
					{ "time": 0.6666, "x": 0, "y": 0 }
				],
				"scale": [
					{ "time": 0, "x": 1, "y": 1, "curve": "stepped" },
					{ "time": 0.6666, "x": 1, "y": 1 }
				]
			},
			"arm_right": {
				"rotate": [
					{ "time": 0, "angle": 29.24, "curve": "stepped" },
					{ "time": 0.6666, "angle": 29.24 }
				],
				"translate": [
					{ "time": 0, "x": 0, "y": 0 },
					{ "time": 0.3333, "x": 0, "y": -1.5 },
					{ "time": 0.6666, "x": 0, "y": 0 }
				],
				"scale": [
					{ "time": 0, "x": 1, "y": 1, "curve": "stepped" },
					{ "time": 0.6666, "x": 1, "y": 1 }
				]
			},
			"head": {
				"rotate": [
					{ "time": 0, "angle": 0 }
				],
				"translate": [
					{ "time": 0, "x": 0, "y": 0 },
					{ "time": 0.3333, "x": 0.41, "y": 0 }
				],
				"scale": [
					{ "time": 0, "x": 1, "y": 1 }
				]
			},
			"arm_left": {
				"rotate": [
					{ "time": 0, "angle": 0, "curve": "stepped" },
					{ "time": 0.6666, "angle": 0 }
				],
				"translate": [
					{ "time": 0, "x": 0, "y": 0, "curve": "stepped" },
					{ "time": 0.6666, "x": 0, "y": 0 }
				],
				"scale": [
					{ "time": 0, "x": 1, "y": 1, "curve": "stepped" },
					{ "time": 0.6666, "x": 1, "y": 1 }
				]
			},
			"shield": {
				"rotate": [
					{ "time": 0, "angle": 0, "curve": "stepped" },
					{ "time": 0.6666, "angle": 0 }
				],
				"translate": [
					{ "time": 0, "x": 0, "y": 0, "curve": "stepped" },
					{ "time": 0.6666, "x": 0, "y": 0 }
				],
				"scale": [
					{ "time": 0, "x": 1, "y": 1, "curve": "stepped" },
					{ "time": 0.6666, "x": 1, "y": 1 }
				]
			},
			"sword": {
				"rotate": [
					{ "time": 0, "angle": 0 },
					{ "time": 0.3333, "angle": -4.14 },
					{ "time": 0.6666, "angle": 0 }
				],
				"translate": [
					{ "time": 0, "x": 0, "y": 0, "curve": "stepped" },
					{ "time": 0.6666, "x": 0, "y": 0 }
				],
				"scale": [
					{ "time": 0, "x": 1, "y": 1, "curve": "stepped" },
					{ "time": 0.6666, "x": 1, "y": 1 }
				]
			}
		}
	},
	"summon": {
		"bones": {
			"torso": {
				"rotate": [
					{ "time": 0, "angle": 0, "curve": "stepped" },
					{ "time": 2, "angle": 0 }
				],
				"translate": [
					{ "time": 0, "x": 0, "y": 66.94, "curve": "stepped" },
					{ "time": 0.6, "x": 0, "y": 66.94 },
					{ "time": 0.8666, "x": 0, "y": 0 },
					{ "time": 0.9333, "x": 0, "y": 2.31 },
					{ "time": 1, "x": 0, "y": 0 }
				],
				"scale": [
					{ "time": 0, "x": 1, "y": 1, "curve": "stepped" },
					{ "time": 2, "x": 1, "y": 1 }
				]
			},
			"leg_right": {
				"rotate": [
					{ "time": 0, "angle": 0, "curve": "stepped" },
					{ "time": 2, "angle": 0 }
				],
				"translate": [
					{ "time": 0, "x": 0, "y": 88.42, "curve": "stepped" },
					{ "time": 0.2, "x": 0, "y": 88.42 },
					{ "time": 0.5333, "x": 0, "y": 0 },
					{ "time": 0.6, "x": 0, "y": 2.89 },
					{ "time": 0.6666, "x": 0, "y": 0 }
				],
				"scale": [
					{ "time": 0, "x": 1, "y": 1, "curve": "stepped" },
					{ "time": 2, "x": 1, "y": 1 }
				]
			},
			"leg_left": {
				"rotate": [
					{ "time": 0, "angle": 0, "curve": "stepped" },
					{ "time": 2, "angle": 0 }
				],
				"translate": [
					{ "time": 0, "x": 0, "y": 88.42, "curve": "stepped" },
					{ "time": 0.4, "x": 0, "y": 88.42 },
					{ "time": 0.6666, "x": 0, "y": 0 },
					{ "time": 0.7333, "x": 0, "y": 5.47 },
					{ "time": 0.8, "x": 0, "y": 0 }
				],
				"scale": [
					{ "time": 0, "x": 1, "y": 1, "curve": "stepped" },
					{ "time": 2, "x": 1, "y": 1 }
				]
			},
			"arm_right": {
				"rotate": [
					{ "time": 0, "angle": -12.22, "curve": "stepped" },
					{ "time": 1.4, "angle": -12.22 },
					{ "time": 1.6, "angle": 29.24, "curve": "stepped" },
					{ "time": 2, "angle": 29.24 }
				],
				"translate": [
					{ "time": 0, "x": 0, "y": 82.63, "curve": "stepped" },
					{ "time": 0.8666, "x": 0, "y": 82.63 },
					{ "time": 1.1333, "x": 0, "y": 0 },
					{ "time": 1.2, "x": 0, "y": 1.73 },
					{ "time": 1.2666, "x": 0, "y": 0, "curve": "stepped" },
					{ "time": 2, "x": 0, "y": 0 }
				],
				"scale": [
					{ "time": 0, "x": 1, "y": 1, "curve": "stepped" },
					{ "time": 2, "x": 1, "y": 1 }
				]
			},
			"head": {
				"rotate": [
					{ "time": 0, "angle": 0, "curve": "stepped" },
					{ "time": 1.2, "angle": 0 },
					{ "time": 1.4, "angle": 19.05 },
					{ "time": 1.6, "angle": -16.2 },
					{ "time": 1.8, "angle": 19.05 },
					{ "time": 2, "angle": 0 }
				],
				"translate": [
					{ "time": 0, "x": 58.71, "y": -0.46, "curve": "stepped" },
					{ "time": 1.2, "x": 58.71, "y": -0.46 },
					{ "time": 1.4, "x": 0, "y": 0 },
					{ "time": 1.4666, "x": 1.99, "y": -0.01 },
					{ "time": 1.5333, "x": 0, "y": 0, "curve": "stepped" },
					{ "time": 2, "x": 0, "y": 0 }
				],
				"scale": [
					{ "time": 0, "x": 1, "y": 1 },
					{ "time": 1, "x": 0.71, "y": 0.71 },
					{ "time": 1.2, "x": 1, "y": 1, "curve": "stepped" },
					{ "time": 2, "x": 1, "y": 1 }
				]
			},
			"arm_left": {
				"rotate": [
					{ "time": 0, "angle": 0, "curve": "stepped" },
					{ "time": 2, "angle": 0 }
				],
				"translate": [
					{ "time": 0, "x": 0, "y": 82.11, "curve": "stepped" },
					{ "time": 0.8, "x": 0, "y": 82.11 },
					{ "time": 1.0666, "x": 0, "y": 0 },
					{ "time": 1.1333, "x": 0, "y": 2.57 },
					{ "time": 1.2, "x": 0, "y": 0, "curve": "stepped" },
					{ "time": 2, "x": 0, "y": 0 }
				],
				"scale": [
					{ "time": 0, "x": 1, "y": 1, "curve": "stepped" },
					{ "time": 2, "x": 1, "y": 1 }
				]
			},
			"shield": {
				"rotate": [
					{ "time": 0, "angle": 0, "curve": "stepped" },
					{ "time": 2, "angle": 0 }
				],
				"translate": [
					{ "time": 0, "x": -83.03, "y": -5.24, "curve": "stepped" },
					{ "time": 1.5333, "x": -83.03, "y": -5.24 },
					{ "time": 1.7333, "x": 3.99, "y": 0.25 },
					{ "time": 1.8, "x": 0, "y": 0, "curve": "stepped" },
					{ "time": 2, "x": 0, "y": 0 }
				],
				"scale": [
					{ "time": 0, "x": 1, "y": 1, "curve": "stepped" },
					{ "time": 2, "x": 1, "y": 1 }
				]
			},
			"sword": {
				"rotate": [
					{ "time": 0, "angle": 0, "curve": "stepped" },
					{ "time": 2, "angle": 0 }
				],
				"translate": [
					{ "time": 0, "x": -33.42, "y": 72.69, "curve": "stepped" },
					{ "time": 1.7333, "x": -33.42, "y": 72.69 },
					{ "time": 1.9333, "x": 0, "y": 0, "curve": "stepped" },
					{ "time": 2, "x": 0, "y": 0 }
				],
				"scale": [
					{ "time": 0, "x": 1, "y": 1, "curve": "stepped" },
					{ "time": 2, "x": 1, "y": 1 }
				]
			}
		},
		"slots": {
			"arm_left": {
				"color": [
					{ "time": 0, "color": "ffffff00", "curve": "stepped" },
					{ "time": 0.6, "color": "ffffff00" },
					{ "time": 0.8, "color": "ffffffff" }
				]
			},
			"arm_left_o": {
				"color": [
					{ "time": 0, "color": "ffffff00", "curve": "stepped" },
					{ "time": 0.6, "color": "ffffff00" },
					{ "time": 0.8, "color": "ffffffff" }
				]
			},
			"arm_right": {
				"color": [
					{ "time": 0, "color": "ffffff00", "curve": "stepped" },
					{ "time": 0.6666, "color": "ffffff00" },
					{ "time": 0.8666, "color": "ffffffff" }
				]
			},
			"arm_right_o": {
				"color": [
					{ "time": 0, "color": "ffffff00", "curve": "stepped" },
					{ "time": 0.6666, "color": "ffffff00" },
					{ "time": 0.8666, "color": "ffffffff" }
				]
			},
			"chest": {
				"color": [
					{ "time": 0, "color": "ffffff00", "curve": "stepped" },
					{ "time": 0.4, "color": "ffffff00" },
					{ "time": 0.6, "color": "ffffffff" }
				]
			},
			"chest_o": {
				"color": [
					{ "time": 0, "color": "ffffff00", "curve": "stepped" },
					{ "time": 0.4, "color": "ffffff00" },
					{ "time": 0.6, "color": "ffffffff" }
				]
			},
			"head": {
				"color": [
					{ "time": 0, "color": "ffffff00", "curve": "stepped" },
					{ "time": 1, "color": "ffffff00" },
					{ "time": 1.2, "color": "ffffffff" }
				]
			},
			"head_o": {
				"color": [
					{ "time": 0, "color": "ffffff00", "curve": "stepped" },
					{ "time": 1, "color": "ffffff00" },
					{ "time": 1.2, "color": "ffffffff" }
				]
			},
			"leg_foot": {
				"color": [
					{ "time": 0, "color": "ffffff00", "curve": "stepped" },
					{ "time": 0.2, "color": "ffffff00" },
					{ "time": 0.4, "color": "ffffffff" }
				]
			},
			"leg_foot_o": {
				"color": [
					{ "time": 0, "color": "ffffff00", "curve": "stepped" },
					{ "time": 0.2, "color": "ffffff00" },
					{ "time": 0.4, "color": "ffffffff" }
				]
			},
			"leg_left": {
				"color": [
					{ "time": 0, "color": "ffffff00", "curve": "stepped" },
					{ "time": 0.2, "color": "ffffff00" },
					{ "time": 0.4, "color": "ffffffff" }
				]
			},
			"leg_left_o": {
				"color": [
					{ "time": 0, "color": "ffffff00", "curve": "stepped" },
					{ "time": 0.2, "color": "ffffff00" },
					{ "time": 0.4, "color": "ffffffff" }
				]
			},
			"leg_right": {
				"color": [
					{ "time": 0, "color": "ffffff00" },
					{ "time": 0.2, "color": "ffffffff" }
				]
			},
			"leg_right_o": {
				"color": [
					{ "time": 0, "color": "ffffff00" },
					{ "time": 0.2, "color": "ffffffff" }
				]
			},
			"shield": {
				"color": [
					{ "time": 0, "color": "ffffff00", "curve": "stepped" },
					{ "time": 1.3333, "color": "ffffff00" },
					{ "time": 1.5333, "color": "ffffffff" }
				]
			},
			"shield_o": {
				"color": [
					{ "time": 0, "color": "ffffff00", "curve": "stepped" },
					{ "time": 1.3333, "color": "ffffff00" },
					{ "time": 1.5333, "color": "ffffffff" }
				]
			},
			"skel_arm": {
				"color": [
					{ "time": 0, "color": "ffffff00", "curve": "stepped" },
					{ "time": 0.6, "color": "ffffff00" },
					{ "time": 0.8, "color": "ffffffff" }
				]
			},
			"skel_arm2": {
				"color": [
					{ "time": 0, "color": "ffffff00", "curve": "stepped" },
					{ "time": 0.6666, "color": "ffffff00" },
					{ "time": 0.8666, "color": "ffffffff" }
				]
			},
			"skel_arm2_o": {
				"color": [
					{ "time": 0, "color": "ffffff00", "curve": "stepped" },
					{ "time": 0.6666, "color": "ffffff00" },
					{ "time": 0.8666, "color": "ffffffff" }
				]
			},
			"skel_arm_o": {
				"color": [
					{ "time": 0, "color": "ffffff00", "curve": "stepped" },
					{ "time": 0.6, "color": "ffffff00" },
					{ "time": 0.8, "color": "ffffffff" }
				]
			},
			"skel_foot2": {
				"color": [
					{ "time": 0, "color": "ffffff00" },
					{ "time": 0.2, "color": "ffffffff" }
				]
			},
			"skel_foot2_o": {
				"color": [
					{ "time": 0, "color": "ffffff00" },
					{ "time": 0.2, "color": "ffffffff" }
				]
			},
			"sword": {
				"color": [
					{ "time": 0, "color": "ffffff00", "curve": "stepped" },
					{ "time": 1.5333, "color": "ffffff00" },
					{ "time": 1.7333, "color": "ffffffff" }
				]
			},
			"sword_o": {
				"color": [
					{ "time": 0, "color": "ffffff00", "curve": "stepped" },
					{ "time": 1.5333, "color": "ffffff00" },
					{ "time": 1.7333, "color": "ffffffff" }
				]
			},
			"torso": {
				"color": [
					{ "time": 0, "color": "ffffff00", "curve": "stepped" },
					{ "time": 0.4, "color": "ffffff00" },
					{ "time": 0.6, "color": "ffffffff" }
				]
			},
			"torso_o": {
				"color": [
					{ "time": 0, "color": "ffffff00", "curve": "stepped" },
					{ "time": 0.4, "color": "ffffff00" },
					{ "time": 0.6, "color": "ffffffff" }
				]
			}
		}
	}
}
}