%YAML 1.1
%TAG !u! tag:unity3d.com,2011:
--- !u!114 &11400000
MonoBehaviour:
  m_ObjectHideFlags: 0
  m_PrefabParentObject: {fileID: 0}
  m_PrefabInternal: {fileID: 0}
  m_GameObject: {fileID: 0}
  m_Enabled: 1
  m_EditorHideFlags: 0
  m_Script: {fileID: 11500000, guid: 40dacadb070e338478494fd11d24424f, type: 1}
  m_Name: MageFeet
  Icon: {fileID: 2800000, guid: efae83720e6312a4597eb34d122001fb, type: 1}
  ItemModel: caster-feet
  ItemGroup: -feet
  Intelligence: 10
  Strength: 2
