{
"bones": [
	{ "name": "root", "scaleX": 1.5, "scaleY": 1.5 },
	{ "name": "body", "parent": "root", "length": 26.76, "x": -1.11, "y": 22.75, "rotation": 90 },
	{ "name": "body_root", "parent": "root", "x": 0.63, "y": -12.31 },
	{ "name": "shadow", "parent": "root", "length": 40, "x": -5.67, "scaleX": 1.137, "scaleY": 1.137 },
	{ "name": "cape", "parent": "body", "length": 28.63, "x": 51.15, "y": 44.1, "rotation": 169 },
	{ "name": "head", "parent": "body", "length": 27.16, "x": 51.2, "y": 4.78 },
	{ "name": "hip", "parent": "body_root", "length": 7.18, "x": -0.14, "y": 2.62, "rotation": 102.86 },
	{ "name": "leg_l", "parent": "body_root", "length": 14.6, "x": -24.8, "y": 37.09, "rotation": -93.14 },
	{ "name": "leg_r", "parent": "body_root", "length": 14.6, "x": 11.95, "y": 37.09, "rotation": -93.14 },
	{ "name": "shoulder_l", "parent": "body", "length": 16.8, "x": 60.93, "y": 25.91, "rotation": 97.02 },
	{ "name": "shoulder_r", "parent": "body", "length": 11.11, "x": 54.02, "y": -19.19, "rotation": 266 },
	{ "name": "arm_l_u", "parent": "shoulder_l", "length": 13.79, "x": 9.57, "y": 1.13, "rotation": 69.11 },
	{ "name": "arm_r_u", "parent": "shoulder_r", "length": 12.7, "x": 2.58, "y": -3.19, "rotation": -89.11 },
	{ "name": "axe", "parent": "arm_r_u", "length": 19.85, "x": 7.81, "y": 37.48, "rotation": 87.89 }
],
"slots": [
	{ "name": "effect", "bone": "axe", "attachment": "pld_sword01" },
	{ "name": "pld_shadow", "bone": "shadow", "color": "ffffff3b", "attachment": "pld_shadow" },
	{ "name": "axe_o", "bone": "axe", "attachment": "pld_hammer_o" },
	{ "name": "cape_o", "bone": "cape", "attachment": "pld_cape_o" },
	{ "name": "body_o", "bone": "body", "attachment": "pld_body_o" },
	{ "name": "shoulder_r_o", "bone": "shoulder_r", "attachment": "pld_shoulder_right_o" },
	{ "name": "leg_l_o", "bone": "leg_l", "attachment": "pld_leg_o" },
	{ "name": "leg_l_o-copy", "bone": "leg_r", "attachment": "pld_leg_o" },
	{ "name": "arm_r_u_o", "bone": "arm_r_u", "attachment": "pld_hand_right_o" },
	{ "name": "shoulder_l_o", "bone": "shoulder_l", "attachment": "pld_shoulder_left_o" },
	{ "name": "arm_l_o", "bone": "arm_l_u", "attachment": "pld_hand_left_o" },
	{ "name": "head_o", "bone": "head", "attachment": "pld_helm_o" },
	{ "name": "hammer", "bone": "axe", "attachment": "pld_hammer" },
	{ "name": "cape", "bone": "cape", "attachment": "pld_cape" },
	{ "name": "leg_r", "bone": "leg_r", "attachment": "pld_leg" },
	{ "name": "leg_l", "bone": "leg_l", "attachment": "pld_leg" },
	{ "name": "arm_r_u", "bone": "arm_r_u", "attachment": "pld_hand_right" },
	{ "name": "body", "bone": "body", "attachment": "pld_body" },
	{ "name": "shoulder_r", "bone": "shoulder_r", "attachment": "pld_shoulder_right" },
	{ "name": "head", "bone": "head", "attachment": "pld_helm" },
	{ "name": "arm_l", "bone": "arm_l_u", "attachment": "pld_hand_left" },
	{ "name": "shoulder_l", "bone": "shoulder_l", "attachment": "pld_shoulder_left" }
],
"skins": {
	"default": {
		"arm_l": {
			"pld_hand_left": { "x": 25.82, "y": 0.27, "rotation": 102.96, "width": 30, "height": 57 }
		},
		"arm_l_o": {
			"pld_hand_left_o": { "x": 25.82, "y": 0.27, "rotation": 105.5, "width": 34, "height": 61 }
		},
		"arm_r_u": {
			"pld_hand_right": { "x": 13.47, "y": 5.43, "rotation": 92.23, "width": 25, "height": 50 }
		},
		"arm_r_u_o": {
			"pld_hand_right_o": { "x": 13.47, "y": 5.43, "rotation": 92.23, "width": 29, "height": 54 }
		},
		"axe_o": {
			"pld_hammer_o": { "x": -0.71, "y": -21.58, "rotation": 4.34, "width": 42, "height": 51 }
		},
		"body": {
			"pld_body": { "x": 27.09, "y": 11.84, "rotation": 270, "width": 82, "height": 64 }
		},
		"body_o": {
			"pld_body_o": { "x": 27.09, "y": 11.84, "rotation": 270, "width": 86, "height": 68 }
		},
		"cape": {
			"pld_cape": { "x": 22.81, "y": 23.24, "rotation": 100.05, "width": 69, "height": 73 }
		},
		"cape_o": {
			"pld_cape_o": { "x": 22.81, "y": 23.24, "rotation": 100.05, "width": 73, "height": 77 }
		},
		"effect": {
			"pld_sword01": { "x": 5.09, "y": -13.28, "scaleX": -0.5, "scaleY": 0.5, "rotation": 18.17, "width": 56, "height": 89 },
			"pld_sword02": { "x": -1.62, "y": 11.34, "scaleX": -0.5, "scaleY": 0.5, "rotation": 15.86, "width": 68, "height": 89 },
			"pld_sword03": { "x": -7.24, "y": 40.26, "scaleX": -0.5, "scaleY": 0.5, "rotation": 14.5, "width": 69, "height": 209 }
		},
		"hammer": {
			"pld_hammer": { "x": -0.71, "y": -21.58, "rotation": 4.34, "width": 38, "height": 47 }
		},
		"head": {
			"pld_helm": { "x": 27.53, "y": 0.33, "rotation": -91.57, "width": 57, "height": 72 }
		},
		"head_o": {
			"pld_helm_o": { "x": 27.53, "y": 0.33, "rotation": -91.57, "width": 61, "height": 76 }
		},
		"leg_l": {
			"pld_leg": { "x": 6.65, "y": -1.38, "rotation": 93.14, "width": 31, "height": 34 }
		},
		"leg_l_o": {
			"pld_leg_o": { "x": 6.65, "y": -1.38, "rotation": 93.14, "width": 35, "height": 38 }
		},
		"leg_l_o-copy": {
			"pld_leg_o": { "x": 6.65, "y": -1.38, "rotation": 93.14, "width": 35, "height": 38 }
		},
		"leg_r": {
			"pld_leg": { "x": 6.65, "y": -1.38, "rotation": 93.14, "width": 31, "height": 34 }
		},
		"pld_shadow": {
			"pld_shadow": { "width": 78, "height": 14 }
		},
		"shoulder_l": {
			"pld_shoulder_left": { "x": 10.85, "y": -1.33, "rotation": 172.07, "width": 43, "height": 34 }
		},
		"shoulder_l_o": {
			"pld_shoulder_left_o": { "x": 10.84, "y": -1.33, "rotation": 172.07, "width": 47, "height": 38 }
		},
		"shoulder_r": {
			"pld_shoulder_right": { "x": 8.02, "y": 6.36, "rotation": 3.12, "width": 29, "height": 30 }
		},
		"shoulder_r_o": {
			"pld_shoulder_right_o": { "x": 8.02, "y": 6.36, "rotation": 3.12, "width": 33, "height": 34 }
		}
	}
},
"animations": {
	"attack": {
		"bones": {
			"root": {
				"rotate": [
					{ "time": 0, "angle": 0, "curve": "stepped" },
					{ "time": 0.1666, "angle": 0, "curve": "stepped" },
					{ "time": 1, "angle": 0, "curve": "stepped" },
					{ "time": 1.1, "angle": 0, "curve": "stepped" },
					{ "time": 1.3333, "angle": 0, "curve": "stepped" },
					{ "time": 1.6666, "angle": 0, "curve": "stepped" },
					{ "time": 1.8, "angle": 0 }
				],
				"translate": [
					{ "time": 0, "x": 0, "y": 0, "curve": "stepped" },
					{ "time": 0.1666, "x": 0, "y": 0, "curve": "stepped" },
					{ "time": 1, "x": 0, "y": 0, "curve": "stepped" },
					{ "time": 1.1, "x": 0, "y": 0, "curve": "stepped" },
					{ "time": 1.3333, "x": 0, "y": 0 },
					{ "time": 1.6666, "x": 0, "y": 0 },
					{ "time": 1.8, "x": 0, "y": 0 }
				],
				"scale": [
					{ "time": 0, "x": 1, "y": 1, "curve": "stepped" },
					{ "time": 0.1666, "x": 1, "y": 1, "curve": "stepped" },
					{ "time": 1, "x": 1, "y": 1, "curve": "stepped" },
					{ "time": 1.1, "x": 1, "y": 1, "curve": "stepped" },
					{ "time": 1.3333, "x": 1, "y": 1, "curve": "stepped" },
					{ "time": 1.6666, "x": 1, "y": 1, "curve": "stepped" },
					{ "time": 1.8, "x": 1, "y": 1 }
				]
			},
			"body_root": {
				"rotate": [
					{ "time": 0, "angle": 0, "curve": "stepped" },
					{ "time": 0.1666, "angle": 0, "curve": "stepped" },
					{ "time": 1, "angle": 0, "curve": "stepped" },
					{ "time": 1.1, "angle": 0, "curve": "stepped" },
					{ "time": 1.3333, "angle": 0, "curve": "stepped" },
					{ "time": 1.6666, "angle": 0, "curve": "stepped" },
					{ "time": 1.8, "angle": 0 }
				],
				"translate": [
					{ "time": 0, "x": 0, "y": 0, "curve": "stepped" },
					{ "time": 0.1666, "x": 0, "y": 0, "curve": "stepped" },
					{ "time": 1, "x": 0, "y": 0, "curve": "stepped" },
					{ "time": 1.1, "x": 0, "y": 0, "curve": "stepped" },
					{ "time": 1.3333, "x": 0, "y": 0, "curve": "stepped" },
					{ "time": 1.6666, "x": 0, "y": 0, "curve": "stepped" },
					{ "time": 1.8, "x": 0, "y": 0 }
				],
				"scale": [
					{ "time": 0, "x": 1, "y": 1, "curve": "stepped" },
					{ "time": 0.1666, "x": 1, "y": 1, "curve": "stepped" },
					{ "time": 1, "x": 1, "y": 1, "curve": "stepped" },
					{ "time": 1.1, "x": 1, "y": 1, "curve": "stepped" },
					{ "time": 1.3333, "x": 1, "y": 1, "curve": "stepped" },
					{ "time": 1.6666, "x": 1, "y": 1, "curve": "stepped" },
					{ "time": 1.8, "x": 1, "y": 1 }
				]
			},
			"hip": {
				"rotate": [
					{ "time": 0, "angle": 0.11 },
					{ "time": 0.1666, "angle": 0.07 },
					{ "time": 1, "angle": 4.75 },
					{ "time": 1.1, "angle": -2.81, "curve": "stepped" },
					{ "time": 1.3333, "angle": -2.81 },
					{ "time": 1.6666, "angle": 1.53 },
					{ "time": 1.8, "angle": 0.11 }
				],
				"translate": [
					{ "time": 0, "x": 0, "y": 0.91 },
					{ "time": 0.1666, "x": 0, "y": 0.07 },
					{ "time": 1, "x": 0, "y": 1.61 },
					{ "time": 1.1, "x": 0, "y": 0.63, "curve": "stepped" },
					{ "time": 1.3333, "x": 0, "y": 0.63 },
					{ "time": 1.6666, "x": 0, "y": 1.07 },
					{ "time": 1.8, "x": 0, "y": 0.91 }
				],
				"scale": [
					{ "time": 0, "x": 1, "y": 1, "curve": "stepped" },
					{ "time": 0.1666, "x": 1, "y": 1, "curve": "stepped" },
					{ "time": 1, "x": 1, "y": 1, "curve": "stepped" },
					{ "time": 1.1, "x": 1, "y": 1, "curve": "stepped" },
					{ "time": 1.3333, "x": 1, "y": 1, "curve": "stepped" },
					{ "time": 1.6666, "x": 1, "y": 1, "curve": "stepped" },
					{ "time": 1.8, "x": 1, "y": 1 }
				]
			},
			"leg_l": {
				"rotate": [
					{ "time": 0, "angle": 0, "curve": "stepped" },
					{ "time": 0.1666, "angle": 0, "curve": "stepped" },
					{ "time": 1, "angle": 0, "curve": "stepped" },
					{ "time": 1.1, "angle": 0, "curve": "stepped" },
					{ "time": 1.3333, "angle": 0, "curve": "stepped" },
					{ "time": 1.6666, "angle": 0, "curve": "stepped" },
					{ "time": 1.8, "angle": 0 }
				],
				"translate": [
					{ "time": 0, "x": 0, "y": 0, "curve": "stepped" },
					{ "time": 0.1666, "x": 0, "y": 0, "curve": "stepped" },
					{ "time": 1, "x": 0, "y": 0, "curve": "stepped" },
					{ "time": 1.1, "x": 0, "y": 0, "curve": "stepped" },
					{ "time": 1.3333, "x": 0, "y": 0, "curve": "stepped" },
					{ "time": 1.6666, "x": 0, "y": 0, "curve": "stepped" },
					{ "time": 1.8, "x": 0, "y": 0 }
				],
				"scale": [
					{ "time": 0, "x": 1, "y": 1, "curve": "stepped" },
					{ "time": 0.1666, "x": 1, "y": 1, "curve": "stepped" },
					{ "time": 1, "x": 1, "y": 1, "curve": "stepped" },
					{ "time": 1.1, "x": 1, "y": 1, "curve": "stepped" },
					{ "time": 1.3333, "x": 1, "y": 1, "curve": "stepped" },
					{ "time": 1.6666, "x": 1, "y": 1, "curve": "stepped" },
					{ "time": 1.8, "x": 1, "y": 1 }
				]
			},
			"body": {
				"rotate": [
					{ "time": 0, "angle": 0.08 },
					{ "time": 0.1666, "angle": 0.05 },
					{ "time": 1, "angle": 9.22 },
					{ "time": 1.1, "angle": -17.24, "curve": "stepped" },
					{ "time": 1.3333, "angle": -17.24 },
					{ "time": 1.6666, "angle": -0.39 },
					{ "time": 1.8, "angle": 0.08 }
				],
				"translate": [
					{ "time": 0, "x": 0.08, "y": -0.02 },
					{ "time": 0.1666, "x": 0.05, "y": -0.01 },
					{ "time": 1, "x": 1.24, "y": 1 },
					{ "time": 1.1, "x": 0.6, "y": -0.17, "curve": "stepped" },
					{ "time": 1.3333, "x": 0.6, "y": -0.17 },
					{ "time": 1.6666, "x": 0.24, "y": -0.07 },
					{ "time": 1.8, "x": 0.08, "y": -0.02 }
				],
				"scale": [
					{ "time": 0, "x": 1, "y": 1, "curve": "stepped" },
					{ "time": 0.1666, "x": 1, "y": 1, "curve": "stepped" },
					{ "time": 1, "x": 1, "y": 1, "curve": "stepped" },
					{ "time": 1.1, "x": 1, "y": 1, "curve": "stepped" },
					{ "time": 1.3333, "x": 1, "y": 1, "curve": "stepped" },
					{ "time": 1.6666, "x": 1, "y": 1, "curve": "stepped" },
					{ "time": 1.8, "x": 1, "y": 1 }
				]
			},
			"head": {
				"rotate": [
					{ "time": 0, "angle": 0.31 },
					{ "time": 0.1666, "angle": -0.6 },
					{ "time": 0.5, "angle": -5.16 },
					{ "time": 1, "angle": 3.75 },
					{ "time": 1.1, "angle": -6.91, "curve": "stepped" },
					{ "time": 1.3333, "angle": -6.91 },
					{ "time": 1.5, "angle": -4.13 },
					{ "time": 1.6666, "angle": -1 },
					{ "time": 1.8, "angle": 0.31 }
				],
				"translate": [
					{ "time": 0, "x": 0, "y": 0.13 },
					{ "time": 0.1666, "x": 0, "y": 0.09 },
					{ "time": 1, "x": -0.04, "y": 1.65 },
					{ "time": 1.1, "x": 0.63, "y": -0.5, "curve": "stepped" },
					{ "time": 1.3333, "x": 0.63, "y": -0.5 },
					{ "time": 1.5, "x": 0.38, "y": -0.25 },
					{ "time": 1.6666, "x": 0.19, "y": -0.05 },
					{ "time": 1.8, "x": 0, "y": 0.13 }
				],
				"scale": [
					{ "time": 0, "x": 1, "y": 1, "curve": "stepped" },
					{ "time": 0.1666, "x": 1, "y": 1, "curve": "stepped" },
					{ "time": 1, "x": 1, "y": 1, "curve": "stepped" },
					{ "time": 1.1, "x": 1, "y": 1, "curve": "stepped" },
					{ "time": 1.3333, "x": 1, "y": 1, "curve": "stepped" },
					{ "time": 1.5, "x": 1, "y": 1, "curve": "stepped" },
					{ "time": 1.6666, "x": 1, "y": 1, "curve": "stepped" },
					{ "time": 1.8, "x": 1, "y": 1 }
				]
			},
			"shoulder_l": {
				"rotate": [
					{ "time": 0, "angle": 0, "curve": "stepped" },
					{ "time": 0.1666, "angle": 0, "curve": "stepped" },
					{ "time": 1, "angle": 0 },
					{ "time": 1.1, "angle": -12.04, "curve": "stepped" },
					{ "time": 1.3333, "angle": -12.04 },
					{ "time": 1.8, "angle": 0 }
				],
				"translate": [
					{ "time": 0, "x": 0.1, "y": 1.45 },
					{ "time": 0.1666, "x": 0.13, "y": 1.51 },
					{ "time": 1, "x": -1.16, "y": -1.04 },
					{ "time": 1.1, "x": -0.7, "y": 1.96, "curve": "stepped" },
					{ "time": 1.3333, "x": -0.7, "y": 1.96 },
					{ "time": 1.8, "x": 0.1, "y": 1.45 }
				],
				"scale": [
					{ "time": 0, "x": 1, "y": 1, "curve": "stepped" },
					{ "time": 0.1666, "x": 1, "y": 1, "curve": "stepped" },
					{ "time": 1, "x": 1, "y": 1, "curve": "stepped" },
					{ "time": 1.1, "x": 1, "y": 1, "curve": "stepped" },
					{ "time": 1.3333, "x": 1, "y": 1, "curve": "stepped" },
					{ "time": 1.8, "x": 1, "y": 1 }
				]
			},
			"shoulder_r": {
				"rotate": [
					{ "time": 0, "angle": 2.16 },
					{ "time": 0.1666, "angle": 1.44 },
					{ "time": 1, "angle": -310.7 },
					{ "time": 1.1, "angle": -7.97, "curve": "stepped" },
					{ "time": 1.3333, "angle": -7.97 },
					{ "time": 1.6666, "angle": 1 },
					{ "time": 1.8, "angle": 2.16 }
				],
				"translate": [
					{ "time": 0, "x": 0.19, "y": 0.34 },
					{ "time": 0.1666, "x": 0.12, "y": 0.22 },
					{ "time": 1, "x": 2.8, "y": 4.92 },
					{ "time": 1.1, "x": -2.01, "y": 1.2, "curve": "stepped" },
					{ "time": 1.3333, "x": -2.01, "y": 1.2 },
					{ "time": 1.6666, "x": -0.48, "y": 0.6 },
					{ "time": 1.8, "x": 0.19, "y": 0.34 }
				],
				"scale": [
					{ "time": 0, "x": 1, "y": 1, "curve": "stepped" },
					{ "time": 0.1666, "x": 1, "y": 1, "curve": "stepped" },
					{ "time": 1, "x": 1, "y": 1, "curve": "stepped" },
					{ "time": 1.1, "x": 1, "y": 1, "curve": "stepped" },
					{ "time": 1.3333, "x": 1, "y": 1, "curve": "stepped" },
					{ "time": 1.6666, "x": 1, "y": 1, "curve": "stepped" },
					{ "time": 1.8, "x": 1, "y": 1 }
				]
			},
			"arm_l_u": {
				"rotate": [
					{ "time": 0, "angle": 0, "curve": "stepped" },
					{ "time": 0.1666, "angle": 0 },
					{ "time": 1, "angle": -26.97 },
					{ "time": 1.1, "angle": -21.24, "curve": "stepped" },
					{ "time": 1.3333, "angle": -21.24 },
					{ "time": 1.8, "angle": 0 }
				],
				"translate": [
					{ "time": 0, "x": 0, "y": 0, "curve": "stepped" },
					{ "time": 0.1666, "x": 0, "y": 0, "curve": "stepped" },
					{ "time": 1.1, "x": 0, "y": 0, "curve": "stepped" },
					{ "time": 1.3333, "x": 0, "y": 0, "curve": "stepped" },
					{ "time": 1.8, "x": 0, "y": 0 }
				],
				"scale": [
					{ "time": 0, "x": 1, "y": 1, "curve": "stepped" },
					{ "time": 0.1666, "x": 1, "y": 1, "curve": "stepped" },
					{ "time": 1.1, "x": 1, "y": 1, "curve": "stepped" },
					{ "time": 1.3333, "x": 1, "y": 1, "curve": "stepped" },
					{ "time": 1.8, "x": 1, "y": 1 }
				]
			},
			"arm_r_u": {
				"rotate": [
					{ "time": 0, "angle": 5.5 },
					{ "time": 0.1666, "angle": 3.67 },
					{ "time": 1, "angle": 79.89 },
					{ "time": 1.1, "angle": 26.99, "curve": "stepped" },
					{ "time": 1.3333, "angle": 26.99 },
					{ "time": 1.6666, "angle": 27.29 },
					{ "time": 1.8, "angle": 5.5 }
				],
				"translate": [
					{ "time": 0, "x": -0.04, "y": 0.02 },
					{ "time": 0.1666, "x": -0.02, "y": 0.01 },
					{ "time": 1, "x": -0.59, "y": 0.29 },
					{ "time": 1.1, "x": 5.64, "y": -10.3, "curve": "stepped" },
					{ "time": 1.3333, "x": 5.64, "y": -10.3 },
					{ "time": 1.6666, "x": 0.32, "y": -0.37 },
					{ "time": 1.8, "x": -0.04, "y": 0.02 }
				],
				"scale": [
					{ "time": 0, "x": 1, "y": 1, "curve": "stepped" },
					{ "time": 0.1666, "x": 1, "y": 1, "curve": "stepped" },
					{ "time": 1, "x": 1, "y": 1, "curve": "stepped" },
					{ "time": 1.1, "x": 1, "y": 1, "curve": "stepped" },
					{ "time": 1.3333, "x": 1, "y": 1, "curve": "stepped" },
					{ "time": 1.6666, "x": 1, "y": 1, "curve": "stepped" },
					{ "time": 1.8, "x": 1, "y": 1 }
				]
			},
			"axe": {
				"scale": [
					{ "time": 0, "x": 1, "y": 1, "curve": "stepped" },
					{ "time": 0.6666, "x": 1, "y": 1 },
					{ "time": 1, "x": 1.262, "y": 1.262 },
					{ "time": 1.1666, "x": 1, "y": 1 }
				]
			},
			"leg_r": {
				"rotate": [
					{ "time": 0.1666, "angle": 0 },
					{ "time": 1, "angle": 17.72 },
					{ "time": 1.0666, "angle": 0 }
				],
				"translate": [
					{ "time": 0.1666, "x": 0, "y": 0 },
					{ "time": 1, "x": 0, "y": 2 },
					{ "time": 1.0666, "x": 0, "y": 0 }
				]
			},
			"cape": {
				"rotate": [
					{ "time": 0, "angle": 0 },
					{ "time": 0.1666, "angle": -5.16 },
					{ "time": 0.3333, "angle": 0 },
					{ "time": 0.6666, "angle": -5.16 },
					{ "time": 0.8333, "angle": -7.18 },
					{ "time": 1.0666, "angle": -347.79 },
					{ "time": 1.1666, "angle": -7.06 },
					{ "time": 1.3333, "angle": -347.79 },
					{ "time": 1.5, "angle": -5.16 },
					{ "time": 1.8, "angle": 0 }
				]
			}
		},
		"slots": {
			"effect": {
				"attachment": [
					{ "time": 1, "name": "pld_sword03" },
					{ "time": 1.1333, "name": "pld_sword02" },
					{ "time": 1.1666, "name": "pld_sword01" }
				],
				"color": [
					{ "time": 0, "color": "ffffff00", "curve": "stepped" },
					{ "time": 1, "color": "ffffff00" },
					{ "time": 1.0666, "color": "ffffffff", "curve": "stepped" },
					{ "time": 1.1666, "color": "ffffffff" },
					{ "time": 1.2, "color": "ffffff00" }
				]
			}
		}
	},
	"death": {
		"bones": {
			"root": {
				"rotate": [
					{ "time": 0, "angle": 0, "curve": "stepped" },
					{ "time": 0.1666, "angle": 0, "curve": "stepped" },
					{ "time": 0.3333, "angle": 0, "curve": "stepped" },
					{ "time": 0.4666, "angle": 0, "curve": "stepped" },
					{ "time": 0.6, "angle": 0, "curve": "stepped" },
					{ "time": 0.7666, "angle": 0, "curve": "stepped" },
					{ "time": 1, "angle": 0, "curve": "stepped" },
					{ "time": 1.1, "angle": 0, "curve": "stepped" },
					{ "time": 1.2666, "angle": 0, "curve": "stepped" },
					{ "time": 1.5, "angle": 0, "curve": "stepped" },
					{ "time": 1.8333, "angle": 0 }
				],
				"translate": [
					{ "time": 0, "x": 0, "y": 0, "curve": "stepped" },
					{ "time": 0.1666, "x": 0, "y": 0, "curve": "stepped" },
					{ "time": 0.3333, "x": 0, "y": 0, "curve": "stepped" },
					{ "time": 0.4666, "x": 0, "y": 0, "curve": "stepped" },
					{ "time": 0.6, "x": 0, "y": 0, "curve": "stepped" },
					{ "time": 0.7666, "x": 0, "y": 0, "curve": "stepped" },
					{ "time": 1, "x": 0, "y": 0, "curve": "stepped" },
					{ "time": 1.1, "x": 0, "y": 0, "curve": "stepped" },
					{ "time": 1.2666, "x": 0, "y": 0, "curve": "stepped" },
					{ "time": 1.5, "x": 0, "y": 0, "curve": "stepped" },
					{ "time": 1.8333, "x": 0, "y": 0 }
				],
				"scale": [
					{ "time": 0, "x": 1, "y": 1, "curve": "stepped" },
					{ "time": 0.1666, "x": 1, "y": 1, "curve": "stepped" },
					{ "time": 0.3333, "x": 1, "y": 1, "curve": "stepped" },
					{ "time": 0.4666, "x": 1, "y": 1, "curve": "stepped" },
					{ "time": 0.6, "x": 1, "y": 1, "curve": "stepped" },
					{ "time": 0.7666, "x": 1, "y": 1, "curve": "stepped" },
					{ "time": 1, "x": 1, "y": 1, "curve": "stepped" },
					{ "time": 1.1, "x": 1, "y": 1, "curve": "stepped" },
					{ "time": 1.2666, "x": 1, "y": 1, "curve": "stepped" },
					{ "time": 1.5, "x": 1, "y": 1, "curve": "stepped" },
					{ "time": 1.8333, "x": 1, "y": 1 }
				]
			},
			"body_root": {
				"rotate": [
					{ "time": 0, "angle": 0, "curve": "stepped" },
					{ "time": 0.1666, "angle": 0, "curve": "stepped" },
					{ "time": 0.3333, "angle": 0, "curve": "stepped" },
					{ "time": 0.4666, "angle": 0, "curve": "stepped" },
					{ "time": 0.6, "angle": 0, "curve": "stepped" },
					{ "time": 0.7666, "angle": 0, "curve": "stepped" },
					{ "time": 1, "angle": 0, "curve": "stepped" },
					{ "time": 1.1, "angle": 0, "curve": "stepped" },
					{ "time": 1.2666, "angle": 0, "curve": "stepped" },
					{ "time": 1.5, "angle": 0, "curve": "stepped" },
					{ "time": 1.8333, "angle": 0 }
				],
				"translate": [
					{ "time": 0, "x": 0, "y": 0, "curve": "stepped" },
					{ "time": 0.1666, "x": 0, "y": 0, "curve": "stepped" },
					{ "time": 0.3333, "x": 0, "y": 0, "curve": "stepped" },
					{ "time": 0.4666, "x": 0, "y": 0, "curve": "stepped" },
					{ "time": 0.6, "x": 0, "y": 0, "curve": "stepped" },
					{ "time": 0.7666, "x": 0, "y": 0 },
					{ "time": 0.9, "x": 9.95, "y": -0.54 },
					{ "time": 1, "x": 18.47, "y": -6.44, "curve": "stepped" },
					{ "time": 1.1, "x": 18.47, "y": -6.44, "curve": "stepped" },
					{ "time": 1.2666, "x": 18.47, "y": -6.44, "curve": "stepped" },
					{ "time": 1.5, "x": 18.47, "y": -6.44, "curve": "stepped" },
					{ "time": 1.8333, "x": 18.47, "y": -6.44 }
				],
				"scale": [
					{ "time": 0, "x": 1, "y": 1, "curve": "stepped" },
					{ "time": 0.1666, "x": 1, "y": 1, "curve": "stepped" },
					{ "time": 0.3333, "x": 1, "y": 1, "curve": "stepped" },
					{ "time": 0.4666, "x": 1, "y": 1, "curve": "stepped" },
					{ "time": 0.6, "x": 1, "y": 1, "curve": "stepped" },
					{ "time": 0.7666, "x": 1, "y": 1, "curve": "stepped" },
					{ "time": 1, "x": 1, "y": 1, "curve": "stepped" },
					{ "time": 1.1, "x": 1, "y": 1, "curve": "stepped" },
					{ "time": 1.2666, "x": 1, "y": 1, "curve": "stepped" },
					{ "time": 1.5, "x": 1, "y": 1, "curve": "stepped" },
					{ "time": 1.8333, "x": 1, "y": 1 }
				]
			},
			"hip": {
				"rotate": [
					{ "time": 0, "angle": 0, "curve": "stepped" },
					{ "time": 0.1666, "angle": 0, "curve": "stepped" },
					{ "time": 0.3333, "angle": 0, "curve": "stepped" },
					{ "time": 0.4666, "angle": 0, "curve": "stepped" },
					{ "time": 0.6, "angle": 0, "curve": "stepped" },
					{ "time": 0.7666, "angle": 0, "curve": "stepped" },
					{ "time": 1, "angle": 0, "curve": "stepped" },
					{ "time": 1.1, "angle": 0, "curve": "stepped" },
					{ "time": 1.2666, "angle": 0 },
					{ "time": 1.5, "angle": -28.71, "curve": "stepped" },
					{ "time": 1.8333, "angle": -28.71 }
				],
				"translate": [
					{ "time": 0, "x": 0, "y": -0.07 },
					{ "time": 0.1666, "x": 0, "y": 0 },
					{ "time": 0.3333, "x": 0, "y": -0.04 },
					{ "time": 0.4666, "x": 0, "y": -0.84, "curve": "stepped" },
					{ "time": 0.6, "x": 0, "y": -0.84, "curve": "stepped" },
					{ "time": 0.7666, "x": 0, "y": -0.84 },
					{ "time": 1, "x": 0, "y": 0, "curve": "stepped" },
					{ "time": 1.1, "x": 0, "y": 0, "curve": "stepped" },
					{ "time": 1.2666, "x": 0, "y": 0 },
					{ "time": 1.5, "x": 0.78, "y": -1.04, "curve": "stepped" },
					{ "time": 1.8333, "x": 0.78, "y": -1.04 }
				],
				"scale": [
					{ "time": 0, "x": 1, "y": 1, "curve": "stepped" },
					{ "time": 0.1666, "x": 1, "y": 1, "curve": "stepped" },
					{ "time": 0.3333, "x": 1, "y": 1, "curve": "stepped" },
					{ "time": 0.4666, "x": 1, "y": 1, "curve": "stepped" },
					{ "time": 0.6, "x": 1, "y": 1, "curve": "stepped" },
					{ "time": 0.7666, "x": 1, "y": 1, "curve": "stepped" },
					{ "time": 1, "x": 1, "y": 1, "curve": "stepped" },
					{ "time": 1.1, "x": 1, "y": 1, "curve": "stepped" },
					{ "time": 1.2666, "x": 1, "y": 1, "curve": "stepped" },
					{ "time": 1.5, "x": 1, "y": 1, "curve": "stepped" },
					{ "time": 1.8333, "x": 1, "y": 1 }
				]
			},
			"leg_l": {
				"rotate": [
					{ "time": 0, "angle": 0, "curve": "stepped" },
					{ "time": 0.7666, "angle": 0 },
					{ "time": 1, "angle": 249.41 }
				],
				"translate": [
					{ "time": 0, "x": 0, "y": 0, "curve": "stepped" },
					{ "time": 0.7666, "x": 0, "y": 0 },
					{ "time": 1, "x": 16.85, "y": -11.01 }
				],
				"scale": [
					{ "time": 0, "x": 1, "y": 1, "curve": "stepped" },
					{ "time": 0.7666, "x": 1, "y": 1, "curve": "stepped" },
					{ "time": 1, "x": 1, "y": 1 }
				]
			},
			"body": {
				"rotate": [
					{ "time": 0, "angle": 0, "curve": "stepped" },
					{ "time": 1, "angle": 0 },
					{ "time": 1.5, "angle": -69.77 }
				],
				"translate": [
					{ "time": 0, "x": -0.11, "y": 0.02 },
					{ "time": 0.7666, "x": -1.03, "y": 0.23 },
					{ "time": 1, "x": 33.9, "y": -14.05 },
					{ "time": 1.5, "x": 14.84, "y": -12.46 }
				],
				"scale": [
					{ "time": 0, "x": 1, "y": 1, "curve": "stepped" },
					{ "time": 1, "x": 1, "y": 1 }
				]
			},
			"head": {
				"rotate": [
					{ "time": 0, "angle": 0, "curve": "stepped" },
					{ "time": 0.1666, "angle": 0, "curve": "stepped" },
					{ "time": 0.3333, "angle": 0 },
					{ "time": 0.4666, "angle": -7.75 },
					{ "time": 0.6, "angle": -6.43 },
					{ "time": 0.7666, "angle": -5.7 },
					{ "time": 0.9, "angle": 6.88 },
					{ "time": 1, "angle": -7.62 },
					{ "time": 1.1, "angle": -8.71 },
					{ "time": 1.2666, "angle": -8.17 },
					{ "time": 1.4333, "angle": 19.63 },
					{ "time": 1.6, "angle": -31.51 },
					{ "time": 1.6666, "angle": -30.33 },
					{ "time": 1.7666, "angle": -31.77 },
					{ "time": 1.8333, "angle": -32.02 }
				],
				"translate": [
					{ "time": 0, "x": -0.09, "y": 0.01 },
					{ "time": 0.1666, "x": 0, "y": 0 },
					{ "time": 0.3333, "x": -0.06, "y": 0 },
					{ "time": 0.4666, "x": -1.11, "y": 0.13 },
					{ "time": 0.6, "x": -0.77, "y": 0.09 },
					{ "time": 0.7666, "x": -1.11, "y": 0.13 },
					{ "time": 1, "x": -0.99, "y": 0.12 },
					{ "time": 1.1, "x": 0, "y": 0 },
					{ "time": 1.2666, "x": -0.24, "y": 0.03 },
					{ "time": 1.5, "x": -3.54, "y": -5.2, "curve": "stepped" },
					{ "time": 1.6666, "x": -3.54, "y": -5.2, "curve": "stepped" },
					{ "time": 1.8333, "x": -3.54, "y": -5.2 }
				],
				"scale": [
					{ "time": 0, "x": 1, "y": 1, "curve": "stepped" },
					{ "time": 0.1666, "x": 1, "y": 1, "curve": "stepped" },
					{ "time": 0.3333, "x": 1, "y": 1, "curve": "stepped" },
					{ "time": 0.4666, "x": 1, "y": 1, "curve": "stepped" },
					{ "time": 0.6, "x": 1, "y": 1, "curve": "stepped" },
					{ "time": 0.7666, "x": 1, "y": 1, "curve": "stepped" },
					{ "time": 1, "x": 1, "y": 1, "curve": "stepped" },
					{ "time": 1.1, "x": 1, "y": 1, "curve": "stepped" },
					{ "time": 1.2666, "x": 1, "y": 1, "curve": "stepped" },
					{ "time": 1.5, "x": 1, "y": 1, "curve": "stepped" },
					{ "time": 1.8333, "x": 1, "y": 1 }
				]
			},
			"shoulder_l": {
				"rotate": [
					{ "time": 0, "angle": 0.86 },
					{ "time": 0.1666, "angle": 0 },
					{ "time": 0.3333, "angle": 0.61 },
					{ "time": 0.4666, "angle": 10.27, "curve": "stepped" },
					{ "time": 0.6, "angle": 10.27, "curve": "stepped" },
					{ "time": 0.7666, "angle": 10.27 },
					{ "time": 1, "angle": 0, "curve": "stepped" },
					{ "time": 1.1, "angle": 0, "curve": "stepped" },
					{ "time": 1.2666, "angle": 0 },
					{ "time": 1.4, "angle": 28.09 },
					{ "time": 1.5, "angle": 44.38 },
					{ "time": 1.6333, "angle": 57 },
					{ "time": 1.7333, "angle": 55.93 },
					{ "time": 1.8, "angle": 57.31, "curve": "stepped" },
					{ "time": 1.8333, "angle": 57.31 }
				],
				"translate": [
					{ "time": 0, "x": 0, "y": 0.06 },
					{ "time": 0.1666, "x": 0, "y": 0 },
					{ "time": 0.3333, "x": 0, "y": 0.04 },
					{ "time": 0.4666, "x": 0.1, "y": 0.83, "curve": "stepped" },
					{ "time": 0.6, "x": 0.1, "y": 0.83, "curve": "stepped" },
					{ "time": 0.7666, "x": 0.1, "y": 0.83 },
					{ "time": 1, "x": -0.99, "y": 0.12 },
					{ "time": 1.1, "x": 0, "y": 0 },
					{ "time": 1.2666, "x": -0.24, "y": 0.03 },
					{ "time": 1.5, "x": -3.76, "y": -1.83, "curve": "stepped" },
					{ "time": 1.8333, "x": -3.76, "y": -1.83 }
				],
				"scale": [
					{ "time": 0, "x": 1, "y": 1, "curve": "stepped" },
					{ "time": 0.1666, "x": 1, "y": 1, "curve": "stepped" },
					{ "time": 0.3333, "x": 1, "y": 1, "curve": "stepped" },
					{ "time": 0.4666, "x": 1, "y": 1, "curve": "stepped" },
					{ "time": 0.6, "x": 1, "y": 1, "curve": "stepped" },
					{ "time": 0.7666, "x": 1, "y": 1, "curve": "stepped" },
					{ "time": 1, "x": 1, "y": 1, "curve": "stepped" },
					{ "time": 1.1, "x": 1, "y": 1, "curve": "stepped" },
					{ "time": 1.2666, "x": 1, "y": 1, "curve": "stepped" },
					{ "time": 1.5, "x": 1, "y": 1, "curve": "stepped" },
					{ "time": 1.8333, "x": 1, "y": 1 }
				]
			},
			"shoulder_r": {
				"rotate": [
					{ "time": 0, "angle": -1.11 },
					{ "time": 0.1666, "angle": 0 },
					{ "time": 0.3333, "angle": -0.78 },
					{ "time": 0.4666, "angle": -13.46, "curve": "stepped" },
					{ "time": 0.6, "angle": -13.46, "curve": "stepped" },
					{ "time": 0.7666, "angle": -13.46 },
					{ "time": 1, "angle": 0, "curve": "stepped" },
					{ "time": 1.1, "angle": 0, "curve": "stepped" },
					{ "time": 1.2666, "angle": 0 },
					{ "time": 1.5, "angle": 53.85, "curve": "stepped" },
					{ "time": 1.8333, "angle": 53.85 }
				],
				"translate": [
					{ "time": 0, "x": -0.01, "y": 0.04 },
					{ "time": 0.1666, "x": 0, "y": 0 },
					{ "time": 0.3333, "x": -0.01, "y": 0.03 },
					{ "time": 0.4666, "x": -0.2, "y": 0.59, "curve": "stepped" },
					{ "time": 0.6, "x": -0.2, "y": 0.59, "curve": "stepped" },
					{ "time": 0.7666, "x": -0.2, "y": 0.59 },
					{ "time": 1, "x": -0.99, "y": 0.12 },
					{ "time": 1.1, "x": -3.03, "y": 5.64, "curve": "stepped" },
					{ "time": 1.2666, "x": -3.03, "y": 5.64, "curve": "stepped" },
					{ "time": 1.5, "x": -3.03, "y": 5.64, "curve": "stepped" },
					{ "time": 1.8333, "x": -3.03, "y": 5.64 }
				],
				"scale": [
					{ "time": 0, "x": 1, "y": 1, "curve": "stepped" },
					{ "time": 0.1666, "x": 1, "y": 1, "curve": "stepped" },
					{ "time": 0.3333, "x": 1, "y": 1, "curve": "stepped" },
					{ "time": 0.4666, "x": 1, "y": 1, "curve": "stepped" },
					{ "time": 0.6, "x": 1, "y": 1, "curve": "stepped" },
					{ "time": 0.7666, "x": 1, "y": 1, "curve": "stepped" },
					{ "time": 1, "x": 1, "y": 1, "curve": "stepped" },
					{ "time": 1.1, "x": 1, "y": 1, "curve": "stepped" },
					{ "time": 1.2666, "x": 1, "y": 1, "curve": "stepped" },
					{ "time": 1.5, "x": 1, "y": 1, "curve": "stepped" },
					{ "time": 1.8333, "x": 1, "y": 1 }
				]
			},
			"arm_l_u": {
				"rotate": [
					{ "time": 0, "angle": 0, "curve": "stepped" },
					{ "time": 0.1666, "angle": 0, "curve": "stepped" },
					{ "time": 0.3333, "angle": 0, "curve": "stepped" },
					{ "time": 0.4666, "angle": 0, "curve": "stepped" },
					{ "time": 0.6, "angle": 0, "curve": "stepped" },
					{ "time": 0.7666, "angle": 0 }
				],
				"translate": [
					{ "time": 0, "x": 0, "y": 0, "curve": "stepped" },
					{ "time": 0.1666, "x": 0, "y": 0, "curve": "stepped" },
					{ "time": 0.3333, "x": 0, "y": 0, "curve": "stepped" },
					{ "time": 0.4666, "x": 0, "y": 0, "curve": "stepped" },
					{ "time": 0.6, "x": 0, "y": 0, "curve": "stepped" },
					{ "time": 0.7666, "x": 0, "y": 0 }
				],
				"scale": [
					{ "time": 0, "x": 1, "y": 1, "curve": "stepped" },
					{ "time": 0.1666, "x": 1, "y": 1, "curve": "stepped" },
					{ "time": 0.3333, "x": 1, "y": 1, "curve": "stepped" },
					{ "time": 0.4666, "x": 1, "y": 1, "curve": "stepped" },
					{ "time": 0.6, "x": 1, "y": 1, "curve": "stepped" },
					{ "time": 0.7666, "x": 1, "y": 1 }
				]
			},
			"arm_r_u": {
				"rotate": [
					{ "time": 0, "angle": 0.35 },
					{ "time": 0.1666, "angle": 0 },
					{ "time": 0.3333, "angle": 0.25 },
					{ "time": 0.4666, "angle": 4.19, "curve": "stepped" },
					{ "time": 0.6, "angle": 4.19, "curve": "stepped" },
					{ "time": 0.7666, "angle": 4.19 },
					{ "time": 1, "angle": 0, "curve": "stepped" },
					{ "time": 1.1, "angle": 0, "curve": "stepped" },
					{ "time": 1.2666, "angle": 0 },
					{ "time": 1.5, "angle": -68.06, "curve": "stepped" },
					{ "time": 1.8333, "angle": -68.06 }
				],
				"translate": [
					{ "time": 0, "x": 0, "y": 0, "curve": "stepped" },
					{ "time": 0.1666, "x": 0, "y": 0, "curve": "stepped" },
					{ "time": 0.3333, "x": 0, "y": 0, "curve": "stepped" },
					{ "time": 0.4666, "x": 0, "y": 0, "curve": "stepped" },
					{ "time": 0.6, "x": 0, "y": 0, "curve": "stepped" },
					{ "time": 0.7666, "x": 0, "y": 0, "curve": "stepped" },
					{ "time": 1, "x": 0, "y": 0, "curve": "stepped" },
					{ "time": 1.1, "x": 0, "y": 0, "curve": "stepped" },
					{ "time": 1.2666, "x": 0, "y": 0, "curve": "stepped" },
					{ "time": 1.5, "x": 0, "y": 0, "curve": "stepped" },
					{ "time": 1.8333, "x": 0, "y": 0 }
				],
				"scale": [
					{ "time": 0, "x": 1, "y": 1, "curve": "stepped" },
					{ "time": 0.1666, "x": 1, "y": 1, "curve": "stepped" },
					{ "time": 0.3333, "x": 1, "y": 1, "curve": "stepped" },
					{ "time": 0.4666, "x": 1, "y": 1, "curve": "stepped" },
					{ "time": 0.6, "x": 1, "y": 1, "curve": "stepped" },
					{ "time": 0.7666, "x": 1, "y": 1, "curve": "stepped" },
					{ "time": 1, "x": 1, "y": 1, "curve": "stepped" },
					{ "time": 1.1, "x": 1, "y": 1, "curve": "stepped" },
					{ "time": 1.2666, "x": 1, "y": 1, "curve": "stepped" },
					{ "time": 1.5, "x": 1, "y": 1, "curve": "stepped" },
					{ "time": 1.8333, "x": 1, "y": 1 }
				]
			},
			"axe": {
				"rotate": [
					{ "time": 0, "angle": -1 },
					{ "time": 0.1666, "angle": 0 },
					{ "time": 0.3333, "angle": -0.7 },
					{ "time": 0.4666, "angle": -12.11, "curve": "stepped" },
					{ "time": 0.6, "angle": -12.11, "curve": "stepped" },
					{ "time": 0.7666, "angle": -12.11 },
					{ "time": 1, "angle": 14.73 },
					{ "time": 1.1666, "angle": 33.38 },
					{ "time": 1.3333, "angle": 52.96 }
				],
				"translate": [
					{ "time": 0, "x": -0.2, "y": -0.01 },
					{ "time": 0.1666, "x": 0, "y": 0 },
					{ "time": 0.3333, "x": -0.14, "y": -0.01 },
					{ "time": 0.4666, "x": -2.51, "y": -0.19 },
					{ "time": 0.6, "x": -2.19, "y": -0.19, "curve": "stepped" },
					{ "time": 0.7666, "x": -2.19, "y": -0.19 },
					{ "time": 1, "x": 7.95, "y": -40.99 },
					{ "time": 1.3333, "x": 3.22, "y": -46.58 }
				],
				"scale": [
					{ "time": 0, "x": 1, "y": 1, "curve": "stepped" },
					{ "time": 0.1666, "x": 1, "y": 1, "curve": "stepped" },
					{ "time": 0.3333, "x": 1, "y": 1, "curve": "stepped" },
					{ "time": 0.4666, "x": 1, "y": 1, "curve": "stepped" },
					{ "time": 0.6, "x": 1, "y": 1, "curve": "stepped" },
					{ "time": 0.7666, "x": 1, "y": 1 }
				]
			},
			"shadow": {
				"translate": [
					{ "time": 0, "x": 0, "y": 0, "curve": "stepped" },
					{ "time": 0.8, "x": 0, "y": 0 },
					{ "time": 1, "x": 27.78, "y": 0 },
					{ "time": 1.6666, "x": 53.19, "y": 0 }
				],
				"scale": [
					{ "time": 0, "x": 1, "y": 1, "curve": "stepped" },
					{ "time": 0.8, "x": 1, "y": 1 },
					{ "time": 1.6666, "x": 1.711, "y": 1.711 }
				]
			},
			"leg_r": {
				"rotate": [
					{ "time": 0, "angle": 0, "curve": "stepped" },
					{ "time": 0.7666, "angle": 0 },
					{ "time": 1, "angle": 249.41 }
				],
				"translate": [
					{ "time": 0, "x": 0, "y": 0, "curve": "stepped" },
					{ "time": 0.7666, "x": 0, "y": 0 },
					{ "time": 1, "x": 16.85, "y": -11.01 }
				],
				"scale": [
					{ "time": 0, "x": 1, "y": 1, "curve": "stepped" },
					{ "time": 0.7666, "x": 1, "y": 1, "curve": "stepped" },
					{ "time": 1, "x": 1, "y": 1 }
				]
			},
			"cape": {
				"rotate": [
					{ "time": 0, "angle": 0 },
					{ "time": 0.3333, "angle": 5.6 },
					{ "time": 0.6666, "angle": -5.86 },
					{ "time": 0.8333, "angle": -18.15 },
					{ "time": 1, "angle": 2.05 },
					{ "time": 1.3333, "angle": -24.28 },
					{ "time": 1.6666, "angle": -1.33 }
				],
				"translate": [
					{ "time": 1.3333, "x": -3.83, "y": -4.1 },
					{ "time": 1.5, "x": -14.7, "y": -13.9 },
					{ "time": 1.6666, "x": -16.78, "y": -17.64 }
				],
				"scale": [
					{ "time": 0, "x": 1, "y": 1, "curve": "stepped" },
					{ "time": 0.6666, "x": 1, "y": 1 },
					{ "time": 0.8333, "x": 0.85, "y": 1 },
					{ "time": 1, "x": 0.893, "y": 1, "curve": "stepped" },
					{ "time": 1.3333, "x": 0.893, "y": 1 },
					{ "time": 1.5, "x": 0.893, "y": 0.738 }
				]
			}
		}
	},
	"rest": {
		"bones": {
			"root": {
				"rotate": [
					{ "time": 0, "angle": 0, "curve": "stepped" },
					{ "time": 0.8666, "angle": 0, "curve": "stepped" },
					{ "time": 1.6666, "angle": 0 }
				],
				"translate": [
					{ "time": 0, "x": 0, "y": 0, "curve": "stepped" },
					{ "time": 0.8666, "x": 0, "y": 0, "curve": "stepped" },
					{ "time": 1.6666, "x": 0, "y": 0 }
				],
				"scale": [
					{ "time": 0, "x": 1, "y": 1, "curve": "stepped" },
					{ "time": 0.8666, "x": 1, "y": 1, "curve": "stepped" },
					{ "time": 1.6666, "x": 1, "y": 1 }
				]
			},
			"body_root": {
				"rotate": [
					{ "time": 0, "angle": 0, "curve": "stepped" },
					{ "time": 0.8666, "angle": 0, "curve": "stepped" },
					{ "time": 1.6666, "angle": 0 }
				],
				"translate": [
					{ "time": 0, "x": 0, "y": 0, "curve": "stepped" },
					{ "time": 0.8666, "x": 0, "y": 0, "curve": "stepped" },
					{ "time": 1.6666, "x": 0, "y": 0 }
				],
				"scale": [
					{ "time": 0, "x": 1, "y": 1, "curve": "stepped" },
					{ "time": 0.8666, "x": 1, "y": 1, "curve": "stepped" },
					{ "time": 1.6666, "x": 1, "y": 1 }
				]
			},
			"hip": {
				"rotate": [
					{ "time": 0, "angle": 0.11 },
					{ "time": 0.8666, "angle": 0 },
					{ "time": 1.6666, "angle": 0.11 }
				],
				"translate": [
					{ "time": 0, "x": 0, "y": 0.91 },
					{ "time": 0.8666, "x": 0, "y": 1.84 },
					{ "time": 1.6666, "x": 0, "y": 0.91 }
				],
				"scale": [
					{ "time": 0, "x": 1, "y": 1, "curve": "stepped" },
					{ "time": 0.8666, "x": 1, "y": 1, "curve": "stepped" },
					{ "time": 1.6666, "x": 1, "y": 1 }
				]
			},
			"leg_l": {
				"rotate": [
					{ "time": 0, "angle": 0, "curve": "stepped" },
					{ "time": 0.8666, "angle": 0, "curve": "stepped" },
					{ "time": 1.6666, "angle": 0 }
				],
				"translate": [
					{ "time": 0, "x": 0, "y": 0, "curve": "stepped" },
					{ "time": 0.8666, "x": 0, "y": 0, "curve": "stepped" },
					{ "time": 1.6666, "x": 0, "y": 0 }
				],
				"scale": [
					{ "time": 0, "x": 1, "y": 1, "curve": "stepped" },
					{ "time": 0.8666, "x": 1, "y": 1, "curve": "stepped" },
					{ "time": 1.6666, "x": 1, "y": 1 }
				]
			},
			"body": {
				"rotate": [
					{ "time": 0, "angle": 0.08 },
					{ "time": 0.8666, "angle": 0 },
					{ "time": 1.6666, "angle": 0.08 }
				],
				"translate": [
					{ "time": 0, "x": 0.08, "y": -0.02 },
					{ "time": 0.8666, "x": -0.35, "y": 0.08 },
					{ "time": 1.6666, "x": 0.08, "y": -0.02 }
				],
				"scale": [
					{ "time": 0, "x": 1, "y": 1, "curve": "stepped" },
					{ "time": 0.8666, "x": 1, "y": 1, "curve": "stepped" },
					{ "time": 1.6666, "x": 1, "y": 1 }
				]
			},
			"cape": {
				"rotate": [
					{ "time": 0, "angle": 0.44 },
					{ "time": 0.5, "angle": -2.78 },
					{ "time": 1, "angle": 2.09 },
					{ "time": 1.6666, "angle": 0.44 }
				],
				"translate": [
					{ "time": 0, "x": 0.34, "y": 2.69 },
					{ "time": 0.5, "x": 0.32, "y": 1.89 },
					{ "time": 1, "x": 0.04, "y": 1.64 },
					{ "time": 1.6666, "x": 0.34, "y": 2.69 }
				],
				"scale": [
					{ "time": 0, "x": 1, "y": 1, "curve": "stepped" },
					{ "time": 1, "x": 1, "y": 1, "curve": "stepped" },
					{ "time": 1.6666, "x": 1, "y": 1 }
				]
			},
			"head": {
				"rotate": [
					{ "time": 0, "angle": 0.31 },
					{ "time": 0.4666, "angle": -0.37 },
					{ "time": 0.8666, "angle": 0 },
					{ "time": 1.2666, "angle": 1.26 },
					{ "time": 1.6666, "angle": 0.31 }
				],
				"translate": [
					{ "time": 0, "x": 0, "y": 0.13 },
					{ "time": 0.8666, "x": 0.36, "y": -0.04 },
					{ "time": 1.6666, "x": 0, "y": 0.13 }
				],
				"scale": [
					{ "time": 0, "x": 1, "y": 1, "curve": "stepped" },
					{ "time": 0.8666, "x": 1, "y": 1, "curve": "stepped" },
					{ "time": 1.6666, "x": 1, "y": 1 }
				]
			},
			"shoulder_l": {
				"rotate": [
					{ "time": 0, "angle": 0 },
					{ "time": 0.8666, "angle": 1.81 },
					{ "time": 1.6666, "angle": 0 }
				],
				"translate": [
					{ "time": 0, "x": 0.1, "y": 1.45 },
					{ "time": 0.8666, "x": -0.64, "y": 0.82 },
					{ "time": 1.6666, "x": 0.1, "y": 1.45 }
				],
				"scale": [
					{ "time": 0, "x": 1, "y": 1, "curve": "stepped" },
					{ "time": 0.8666, "x": 1, "y": 1, "curve": "stepped" },
					{ "time": 1.6666, "x": 1, "y": 1 }
				]
			},
			"shoulder_r": {
				"rotate": [
					{ "time": 0, "angle": 2.16 },
					{ "time": 0.8666, "angle": -4.79 },
					{ "time": 1.6666, "angle": 2.16 }
				],
				"translate": [
					{ "time": 0, "x": 0.19, "y": 0.34 },
					{ "time": 0.8666, "x": -0.77, "y": -0.27 },
					{ "time": 1.6666, "x": 0.19, "y": 0.34 }
				],
				"scale": [
					{ "time": 0, "x": 1, "y": 1, "curve": "stepped" },
					{ "time": 0.8666, "x": 1, "y": 1, "curve": "stepped" },
					{ "time": 1.6666, "x": 1, "y": 1 }
				]
			},
			"arm_l_u": {
				"rotate": [
					{ "time": 0, "angle": 0 },
					{ "time": 0.8666, "angle": -2.18 },
					{ "time": 1.6666, "angle": 0 }
				],
				"translate": [
					{ "time": 0, "x": 0, "y": 0, "curve": "stepped" },
					{ "time": 0.8666, "x": 0, "y": 0, "curve": "stepped" },
					{ "time": 1.6666, "x": 0, "y": 0 }
				],
				"scale": [
					{ "time": 0, "x": 1, "y": 1, "curve": "stepped" },
					{ "time": 0.8666, "x": 1, "y": 1, "curve": "stepped" },
					{ "time": 1.6666, "x": 1, "y": 1 }
				]
			},
			"arm_r_u": {
				"rotate": [
					{ "time": 0, "angle": 5.5 },
					{ "time": 0.8666, "angle": 4.35 },
					{ "time": 1.6666, "angle": 5.5 }
				],
				"translate": [
					{ "time": 0, "x": -0.04, "y": 0.02 },
					{ "time": 0.8666, "x": 0, "y": 0 },
					{ "time": 1.6666, "x": -0.04, "y": 0.02 }
				],
				"scale": [
					{ "time": 0, "x": 1, "y": 1, "curve": "stepped" },
					{ "time": 0.8666, "x": 1, "y": 1, "curve": "stepped" },
					{ "time": 1.6666, "x": 1, "y": 1 }
				]
			},
			"axe": {
				"rotate": [
					{ "time": 0, "angle": -1.81, "curve": "stepped" },
					{ "time": 1.6666, "angle": -1.81 }
				],
				"translate": [
					{ "time": 0, "x": 0.09, "y": 0, "curve": "stepped" },
					{ "time": 1.6666, "x": 0.09, "y": 0 }
				],
				"scale": [
					{ "time": 0, "x": 1, "y": 1, "curve": "stepped" },
					{ "time": 1.6666, "x": 1, "y": 1 }
				]
			}
		}
	},
	"walk": {
		"bones": {
			"shadow": {
				"rotate": [
					{ "time": 0, "angle": 0, "curve": "stepped" },
					{ "time": 1, "angle": 0 }
				],
				"translate": [
					{ "time": 0, "x": 0, "y": 0, "curve": "stepped" },
					{ "time": 1, "x": 0, "y": 0 }
				],
				"scale": [
					{ "time": 0, "x": 1, "y": 1, "curve": "stepped" },
					{ "time": 1, "x": 1, "y": 1 }
				]
			},
			"cape": {
				"rotate": [
					{ "time": 0, "angle": 0, "curve": "stepped" },
					{ "time": 1, "angle": 0 }
				],
				"translate": [
					{ "time": 0, "x": 0, "y": 0, "curve": "stepped" },
					{ "time": 1, "x": 0, "y": 0 }
				],
				"scale": [
					{ "time": 0, "x": 1, "y": 1, "curve": "stepped" },
					{ "time": 1, "x": 1, "y": 1 }
				]
			},
			"head": {
				"rotate": [
					{ "time": 0, "angle": 0 },
					{ "time": 0.5, "angle": 1.31 },
					{ "time": 1, "angle": 0 }
				],
				"translate": [
					{ "time": 0, "x": 0, "y": 0, "curve": "stepped" },
					{ "time": 0.5, "x": 0, "y": 0, "curve": "stepped" },
					{ "time": 1, "x": 0, "y": 0 }
				],
				"scale": [
					{ "time": 0, "x": 1, "y": 1, "curve": "stepped" },
					{ "time": 1, "x": 1, "y": 1 }
				]
			},
			"hip": {
				"rotate": [
					{ "time": 0, "angle": 0, "curve": "stepped" },
					{ "time": 1, "angle": 0 }
				],
				"translate": [
					{ "time": 0, "x": 0, "y": 0, "curve": "stepped" },
					{ "time": 1, "x": 0, "y": 0 }
				],
				"scale": [
					{ "time": 0, "x": 1, "y": 1, "curve": "stepped" },
					{ "time": 1, "x": 1, "y": 1 }
				]
			},
			"leg_l": {
				"rotate": [
					{ "time": 0, "angle": 0, "curve": "stepped" },
					{ "time": 1, "angle": 0 }
				],
				"translate": [
					{ "time": 0, "x": 0, "y": 0 },
					{ "time": 0.2333, "x": 5.29, "y": 4.53 },
					{ "time": 0.5, "x": 6.8, "y": -1.7 },
					{ "time": 1, "x": 0, "y": 0 }
				],
				"scale": [
					{ "time": 0, "x": 1, "y": 1, "curve": "stepped" },
					{ "time": 1, "x": 1, "y": 1 }
				]
			},
			"leg_r": {
				"rotate": [
					{ "time": 0, "angle": 0, "curve": "stepped" },
					{ "time": 1, "angle": 0 }
				],
				"translate": [
					{ "time": 0, "x": 0, "y": 0 },
					{ "time": 0.5, "x": -13.04, "y": 0 },
					{ "time": 0.7666, "x": -8.69, "y": 6.24 },
					{ "time": 1, "x": 0, "y": 0 }
				],
				"scale": [
					{ "time": 0, "x": 1, "y": 1, "curve": "stepped" },
					{ "time": 1, "x": 1, "y": 1 }
				]
			},
			"shoulder_l": {
				"rotate": [
					{ "time": 0, "angle": 0, "curve": "stepped" },
					{ "time": 1, "angle": 0 }
				],
				"translate": [
					{ "time": 0, "x": 0, "y": 0 },
					{ "time": 0.2333, "x": 1.33, "y": 0 },
					{ "time": 0.5, "x": 0, "y": 0 },
					{ "time": 0.7666, "x": 1.33, "y": 0 },
					{ "time": 1, "x": 0, "y": 0 }
				],
				"scale": [
					{ "time": 0, "x": 1, "y": 1, "curve": "stepped" },
					{ "time": 1, "x": 1, "y": 1 }
				]
			},
			"shoulder_r": {
				"rotate": [
					{ "time": 0, "angle": 0, "curve": "stepped" },
					{ "time": 1, "angle": 0 }
				],
				"translate": [
					{ "time": 0, "x": 0, "y": 0 },
					{ "time": 0.2333, "x": 1.33, "y": 0 },
					{ "time": 0.5, "x": 0, "y": 0 },
					{ "time": 0.7666, "x": 1.33, "y": 0 },
					{ "time": 1, "x": 0, "y": 0 }
				],
				"scale": [
					{ "time": 0, "x": 1, "y": 1, "curve": "stepped" },
					{ "time": 1, "x": 1, "y": 1 }
				]
			},
			"arm_l_u": {
				"rotate": [
					{ "time": 0, "angle": 0 },
					{ "time": 0.5, "angle": -12.43 },
					{ "time": 1, "angle": 0 }
				],
				"translate": [
					{ "time": 0, "x": 0, "y": 0, "curve": "stepped" },
					{ "time": 1, "x": 0, "y": 0 }
				],
				"scale": [
					{ "time": 0, "x": 1, "y": 1, "curve": "stepped" },
					{ "time": 1, "x": 1, "y": 1 }
				]
			},
			"arm_r_u": {
				"rotate": [
					{ "time": 0, "angle": 0 },
					{ "time": 0.5, "angle": 7.53 },
					{ "time": 1, "angle": 0 }
				],
				"translate": [
					{ "time": 0, "x": 0, "y": 0, "curve": "stepped" },
					{ "time": 1, "x": 0, "y": 0 }
				],
				"scale": [
					{ "time": 0, "x": 1, "y": 1, "curve": "stepped" },
					{ "time": 1, "x": 1, "y": 1 }
				]
			},
			"axe": {
				"rotate": [
					{ "time": 0, "angle": 0, "curve": "stepped" },
					{ "time": 1, "angle": 0 }
				],
				"translate": [
					{ "time": 0, "x": 0, "y": 0, "curve": "stepped" },
					{ "time": 1, "x": 0, "y": 0 }
				],
				"scale": [
					{ "time": 0, "x": 1, "y": 1, "curve": "stepped" },
					{ "time": 1, "x": 1, "y": 1 }
				]
			},
			"body": {
				"rotate": [
					{ "time": 0, "angle": 0 },
					{ "time": 0.5, "angle": -0.48 },
					{ "time": 1, "angle": 0 }
				],
				"translate": [
					{ "time": 0, "x": 0, "y": 0 },
					{ "time": 0.2333, "x": 0, "y": 1.7 },
					{ "time": 0.5, "x": 0, "y": 0 },
					{ "time": 0.7666, "x": 0, "y": 1.7 },
					{ "time": 1, "x": 0, "y": 0 }
				],
				"scale": [
					{ "time": 0, "x": 1, "y": 1, "curve": "stepped" },
					{ "time": 1, "x": 1, "y": 1 }
				]
			},
			"body_root": {
				"rotate": [
					{ "time": 0, "angle": 0, "curve": "stepped" },
					{ "time": 1, "angle": 0 }
				],
				"translate": [
					{ "time": 0, "x": 0, "y": 0, "curve": "stepped" },
					{ "time": 1, "x": 0, "y": 0 }
				],
				"scale": [
					{ "time": 0, "x": 1, "y": 1, "curve": "stepped" },
					{ "time": 1, "x": 1, "y": 1 }
				]
			}
		}
	}
}
}