info face="AbottOldStyle" size=24 bold=0 italic=0 charset="" unicode=0 stretchH=100 smooth=1 aa=1 padding=0,0,0,0 spacing=0,0
common lineHeight=30 base=23 scaleW=256 scaleH=256 pages=1 packed=0
page id=0 file="abott_oldstyle_24.png"
chars count=86
char id=32   x=0     y=0     width=0     height=0     xoffset=0     yoffset=23    xadvance=7     page=0  chnl=0 
char id=106   x=0     y=0     width=11     height=26     xoffset=-3     yoffset=5    xadvance=5     page=0  chnl=0 
char id=41   x=11     y=0     width=10     height=24     xoffset=0     yoffset=4    xadvance=9     page=0  chnl=0 
char id=40   x=21     y=0     width=11     height=24     xoffset=1     yoffset=4    xadvance=9     page=0  chnl=0 
char id=36   x=32     y=0     width=17     height=23     xoffset=0     yoffset=5    xadvance=15     page=0  chnl=0 
char id=81   x=49     y=0     width=19     height=23     xoffset=1     yoffset=5    xadvance=19     page=0  chnl=0 
char id=103   x=68     y=0     width=15     height=22     xoffset=1     yoffset=8    xadvance=14     page=0  chnl=0 
char id=121   x=83     y=0     width=15     height=21     xoffset=0     yoffset=10    xadvance=14     page=0  chnl=0 
char id=107   x=98     y=0     width=16     height=21     xoffset=1     yoffset=4    xadvance=14     page=0  chnl=0 
char id=74   x=114     y=0     width=7     height=21     xoffset=0     yoffset=5    xadvance=6     page=0  chnl=0 
char id=47   x=121     y=0     width=10     height=20     xoffset=0     yoffset=5    xadvance=9     page=0  chnl=0 
char id=63   x=131     y=0     width=14     height=20     xoffset=0     yoffset=5    xadvance=12     page=0  chnl=0 
char id=33   x=145     y=0     width=7     height=20     xoffset=1     yoffset=5    xadvance=6     page=0  chnl=0 
char id=48   x=152     y=0     width=19     height=20     xoffset=1     yoffset=5    xadvance=18     page=0  chnl=0 
char id=56   x=171     y=0     width=19     height=20     xoffset=1     yoffset=5    xadvance=18     page=0  chnl=0 
char id=55   x=190     y=0     width=17     height=20     xoffset=1     yoffset=5    xadvance=18     page=0  chnl=0 
char id=51   x=207     y=0     width=18     height=20     xoffset=0     yoffset=5    xadvance=18     page=0  chnl=0 
char id=49   x=225     y=0     width=7     height=20     xoffset=7     yoffset=5    xadvance=18     page=0  chnl=0 
char id=116   x=232     y=0     width=10     height=20     xoffset=0     yoffset=5    xadvance=7     page=0  chnl=0 
char id=113   x=0     y=26     width=15     height=20     xoffset=0     yoffset=10    xadvance=14     page=0  chnl=0 
char id=112   x=15     y=26     width=15     height=20     xoffset=1     yoffset=10    xadvance=14     page=0  chnl=0 
char id=108   x=30     y=26     width=7     height=20     xoffset=1     yoffset=5    xadvance=6     page=0  chnl=0 
char id=105   x=37     y=26     width=7     height=20     xoffset=1     yoffset=5    xadvance=6     page=0  chnl=0 
char id=104   x=44     y=26     width=15     height=20     xoffset=1     yoffset=5    xadvance=14     page=0  chnl=0 
char id=102   x=59     y=26     width=10     height=20     xoffset=0     yoffset=5    xadvance=8     page=0  chnl=0 
char id=100   x=69     y=26     width=15     height=20     xoffset=0     yoffset=5    xadvance=14     page=0  chnl=0 
char id=98   x=84     y=26     width=14     height=20     xoffset=1     yoffset=5    xadvance=14     page=0  chnl=0 
char id=90   x=98     y=26     width=18     height=20     xoffset=0     yoffset=5    xadvance=17     page=0  chnl=0 
char id=89   x=116     y=26     width=20     height=20     xoffset=0     yoffset=5    xadvance=17     page=0  chnl=0 
char id=88   x=136     y=26     width=19     height=20     xoffset=0     yoffset=5    xadvance=18     page=0  chnl=0 
char id=87   x=155     y=26     width=25     height=20     xoffset=0     yoffset=5    xadvance=23     page=0  chnl=0 
char id=86   x=180     y=26     width=19     height=20     xoffset=0     yoffset=5    xadvance=18     page=0  chnl=0 
char id=85   x=199     y=26     width=19     height=20     xoffset=1     yoffset=5    xadvance=18     page=0  chnl=0 
char id=84   x=218     y=26     width=20     height=20     xoffset=0     yoffset=5    xadvance=18     page=0  chnl=0 
char id=83   x=0     y=46     width=18     height=20     xoffset=0     yoffset=5    xadvance=18     page=0  chnl=0 
char id=82   x=18     y=46     width=25     height=20     xoffset=1     yoffset=5    xadvance=21     page=0  chnl=0 
char id=79   x=43     y=46     width=20     height=20     xoffset=1     yoffset=5    xadvance=19     page=0  chnl=0 
char id=78   x=63     y=46     width=19     height=20     xoffset=1     yoffset=5    xadvance=19     page=0  chnl=0 
char id=77   x=82     y=46     width=24     height=20     xoffset=1     yoffset=5    xadvance=24     page=0  chnl=0 
char id=76   x=106     y=46     width=16     height=20     xoffset=1     yoffset=5    xadvance=15     page=0  chnl=0 
char id=75   x=122     y=46     width=19     height=20     xoffset=1     yoffset=5    xadvance=18     page=0  chnl=0 
char id=73   x=141     y=46     width=8     height=20     xoffset=1     yoffset=5    xadvance=7     page=0  chnl=0 
char id=72   x=149     y=46     width=20     height=20     xoffset=1     yoffset=5    xadvance=20     page=0  chnl=0 
char id=71   x=169     y=46     width=19     height=20     xoffset=1     yoffset=5    xadvance=19     page=0  chnl=0 
char id=70   x=188     y=46     width=18     height=20     xoffset=1     yoffset=5    xadvance=17     page=0  chnl=0 
char id=69   x=206     y=46     width=19     height=20     xoffset=1     yoffset=5    xadvance=18     page=0  chnl=0 
char id=68   x=225     y=46     width=19     height=20     xoffset=0     yoffset=5    xadvance=18     page=0  chnl=0 
char id=67   x=0     y=66     width=19     height=20     xoffset=1     yoffset=5    xadvance=18     page=0  chnl=0 
char id=66   x=19     y=66     width=19     height=20     xoffset=0     yoffset=5    xadvance=18     page=0  chnl=0 
char id=65   x=38     y=66     width=20     height=20     xoffset=1     yoffset=5    xadvance=18     page=0  chnl=0 
char id=38   x=58     y=66     width=23     height=19     xoffset=0     yoffset=5    xadvance=22     page=0  chnl=0 
char id=35   x=81     y=66     width=14     height=19     xoffset=1     yoffset=5    xadvance=14     page=0  chnl=0 
char id=37   x=95     y=66     width=21     height=19     xoffset=1     yoffset=6    xadvance=21     page=0  chnl=0 
char id=57   x=116     y=66     width=19     height=19     xoffset=1     yoffset=5    xadvance=18     page=0  chnl=0 
char id=54   x=135     y=66     width=19     height=19     xoffset=1     yoffset=5    xadvance=18     page=0  chnl=0 
char id=53   x=154     y=66     width=19     height=19     xoffset=0     yoffset=5    xadvance=18     page=0  chnl=0 
char id=52   x=173     y=66     width=18     height=19     xoffset=1     yoffset=6    xadvance=18     page=0  chnl=0 
char id=50   x=191     y=66     width=17     height=19     xoffset=2     yoffset=5    xadvance=18     page=0  chnl=0 
char id=80   x=208     y=66     width=20     height=19     xoffset=1     yoffset=5    xadvance=19     page=0  chnl=0 
char id=59   x=228     y=66     width=6     height=17     xoffset=1     yoffset=10    xadvance=6     page=0  chnl=0 
char id=43   x=234     y=66     width=15     height=15     xoffset=2     yoffset=9    xadvance=18     page=0  chnl=0 
char id=58   x=249     y=66     width=6     height=15     xoffset=1     yoffset=10    xadvance=5     page=0  chnl=0 
char id=120   x=0     y=86     width=15     height=15     xoffset=0     yoffset=10    xadvance=13     page=0  chnl=0 
char id=119   x=15     y=86     width=19     height=15     xoffset=0     yoffset=10    xadvance=17     page=0  chnl=0 
char id=118   x=34     y=86     width=15     height=15     xoffset=0     yoffset=10    xadvance=14     page=0  chnl=0 
char id=117   x=49     y=86     width=16     height=15     xoffset=1     yoffset=10    xadvance=15     page=0  chnl=0 
char id=114   x=65     y=86     width=11     height=15     xoffset=1     yoffset=10    xadvance=9     page=0  chnl=0 
char id=111   x=76     y=86     width=15     height=15     xoffset=1     yoffset=10    xadvance=14     page=0  chnl=0 
char id=110   x=91     y=86     width=15     height=15     xoffset=1     yoffset=10    xadvance=14     page=0  chnl=0 
char id=101   x=106     y=86     width=14     height=15     xoffset=1     yoffset=10    xadvance=13     page=0  chnl=0 
char id=99   x=120     y=86     width=15     height=15     xoffset=1     yoffset=10    xadvance=14     page=0  chnl=0 
char id=97   x=135     y=86     width=14     height=15     xoffset=1     yoffset=10    xadvance=13     page=0  chnl=0 
char id=62   x=149     y=86     width=8     height=14     xoffset=1     yoffset=11    xadvance=7     page=0  chnl=0 
char id=60   x=157     y=86     width=8     height=14     xoffset=1     yoffset=11    xadvance=7     page=0  chnl=0 
char id=122   x=165     y=86     width=14     height=14     xoffset=0     yoffset=10    xadvance=13     page=0  chnl=0 
char id=115   x=179     y=86     width=14     height=14     xoffset=1     yoffset=10    xadvance=13     page=0  chnl=0 
char id=109   x=193     y=86     width=24     height=14     xoffset=0     yoffset=11    xadvance=23     page=0  chnl=0 
char id=42   x=217     y=86     width=9     height=10     xoffset=1     yoffset=5    xadvance=10     page=0  chnl=0 
char id=61   x=226     y=86     width=15     height=10     xoffset=2     yoffset=12    xadvance=18     page=0  chnl=0 
char id=44   x=241     y=86     width=6     height=9     xoffset=1     yoffset=18    xadvance=5     page=0  chnl=0 
char id=34   x=0     y=101     width=11     height=9     xoffset=1     yoffset=5    xadvance=11     page=0  chnl=0 
char id=39   x=11     y=101     width=6     height=8     xoffset=1     yoffset=5    xadvance=6     page=0  chnl=0 
char id=94   x=17     y=101     width=9     height=6     xoffset=0     yoffset=5    xadvance=8     page=0  chnl=0 
char id=46   x=26     y=101     width=6     height=6     xoffset=1     yoffset=19    xadvance=6     page=0  chnl=0 
char id=96   x=32     y=101     width=8     height=6     xoffset=0     yoffset=5    xadvance=7     page=0  chnl=0 
char id=45   x=40     y=101     width=11     height=5     xoffset=1     yoffset=14    xadvance=10     page=0  chnl=0 
char id=95   x=51     y=101     width=16     height=2     xoffset=0     yoffset=22    xadvance=13     page=0  chnl=0 
kernings count=-1
