%YAML 1.1
%TAG !u! tag:unity3d.com,2011:
--- !u!114 &11400000
MonoBehaviour:
  m_ObjectHideFlags: 0
  m_PrefabParentObject: {fileID: 0}
  m_PrefabInternal: {fileID: 0}
  m_GameObject: {fileID: 0}
  m_Enabled: 1
  m_EditorHideFlags: 0
  m_Script: {fileID: 11500000, guid: 6ed55977a3577d947ad3a0421a6a5360, type: 1}
  m_Name: WarriorWeapon
  _Mobile: 0
  _Range: .5
  _PreDelay: .5
  _PostDelay: .25
  _Cooldown: .600000024
  _Damage: 10
